TOP.vcd
$date
	Sat Apr  7 14:41:06 2018
$end
$version
	Icarus Verilog
$end
$timescale
	10ps
$end
$scope module tb_TOP $end
$var reg 1 ! clk $end
$var reg 1 " rst $end
$scope module uut $end
$var wire 1 # A1_Out $end
$var wire 1 $ A2_Out $end
$var wire 16 % ALUOUT_IN [15:0] $end
$var wire 16 & ALUOUT_OUT [15:0] $end
$var wire 1 ' ALUSrcA $end
$var wire 3 ( ALUSrcB [2:0] $end
$var wire 16 ) ALU_1_IN [15:0] $end
$var wire 16 * ALU_2_IN [15:0] $end
$var wire 3 + ALU_OP [2:0] $end
$var wire 2 , A_2bit_Offset [1:0] $end
$var wire 2 - A_2bit_RegSWLW [1:0] $end
$var wire 4 . A_Offset [3:0] $end
$var wire 4 / A_ReadReg1RT [3:0] $end
$var wire 4 0 A_ReadReg2RT [3:0] $end
$var wire 4 1 A_RegSWLW [3:0] $end
$var wire 4 2 A_WriteRegRT_BT [3:0] $end
$var wire 16 3 D_BT [15:0] $end
$var wire 16 4 D_Instruction [15:0] $end
$var wire 16 5 D_JUMP_SE_Out [15:0] $end
$var wire 16 6 D_L1S_Out [15:0] $end
$var wire 16 7 D_Offset [15:0] $end
$var wire 16 8 D_ReadReg1RT [15:0] $end
$var wire 16 9 D_ReadReg2RT [15:0] $end
$var wire 16 : D_RegSW [15:0] $end
$var wire 16 ; D_SE_Out [15:0] $end
$var wire 16 < D_USE_Out [15:0] $end
$var wire 4 = FUNCFIELD [3:0] $end
$var wire 1 > IRWrite $end
$var wire 16 ? IR_InstructionOut [15:0] $end
$var wire 16 @ MDR_IN [15:0] $end
$var wire 16 A MDR_OUT [15:0] $end
$var wire 1 B MemRead $end
$var wire 1 C MemToReg $end
$var wire 1 D MemWrite $end
$var wire 1 E NZERO $end
$var wire 1 F O1_Out $end
$var wire 4 G OPCODE [3:0] $end
$var wire 1 H PCBEqCond $end
$var wire 1 I PCBNqCond $end
$var wire 1 J PCEnableWrite $end
$var wire 2 K PCSrc [1:0] $end
$var wire 1 L PCWrite $end
$var wire 16 M PC_IN [15:0] $end
$var wire 16 N PC_OUT [15:0] $end
$var wire 2 O ReadR1 [1:0] $end
$var wire 1 P ReadR2 $end
$var wire 1 Q RegDstWrite $end
$var wire 1 R RegWrite $end
$var wire 1 S ZERO_OUT $end
$var wire 1 T clk $end
$var wire 1 U rst $end
$var wire 1 V sign_extend $end
$scope module FSM_Main $end
$var wire 1 T clk $end
$var wire 4 W func_field [3:0] $end
$var wire 4 X opcode [3:0] $end
$var wire 1 U rst $end
$var reg 3 Y ALUOp [2:0] $end
$var reg 1 Z ALUSrcA $end
$var reg 3 [ ALUSrcB [2:0] $end
$var reg 6 \ CurrentState [5:0] $end
$var reg 1 ] IRWrite $end
$var reg 1 ^ MemRead $end
$var reg 1 _ MemToReg $end
$var reg 1 ` MemWrite $end
$var reg 6 a NextState [5:0] $end
$var reg 1 b PCBEqCond $end
$var reg 1 c PCBNqCond $end
$var reg 2 d PCSrc [1:0] $end
$var reg 1 e PCWrite $end
$var reg 2 f ReadR1 [1:0] $end
$var reg 1 g ReadR2 $end
$var reg 1 h RegWrite $end
$var reg 1 i RegWriteDst $end
$var reg 1 j sign_extend $end
$upscope $end
$scope module MPC $end
$var wire 16 k ALUOut_result [15:0] $end
$var wire 16 l ALU_result [15:0] $end
$var wire 2 m C_PCSource [1:0] $end
$var wire 16 n RF_result [15:0] $end
$var reg 16 o PC_IN [15:0] $end
$upscope $end
$scope module ProgCount $end
$var wire 1 J C_PCWrite $end
$var wire 16 p PC_IN [15:0] $end
$var wire 1 T clk $end
$var wire 1 U rst $end
$var reg 16 q PC_OUT [15:0] $end
$upscope $end
$scope module IM $end
$var wire 16 r A_InstrAddress [15:0] $end
$var wire 1 s C_IMRead $end
$var wire 1 U rst $end
$var reg 16 t D_Instruction [15:0] $end
$upscope $end
$scope module c11 $end
$var wire 4 u c11out [3:0] $end
$var wire 2 v instr9to8 [1:0] $end
$upscope $end
$scope module c10 $end
$var wire 4 w c10out [3:0] $end
$var wire 2 x instr10to11 [1:0] $end
$upscope $end
$scope module IR $end
$var wire 1 > C_IRWrite $end
$var wire 16 y D_MemData [15:0] $end
$var wire 1 T clk $end
$var wire 1 U rst $end
$var reg 2 z A_Offset [1:0] $end
$var reg 4 { A_ReadReg1RT [3:0] $end
$var reg 4 | A_ReadReg2RT [3:0] $end
$var reg 2 } A_RegSWLW [1:0] $end
$var reg 4 ~ A_WriteRegRT_BT [3:0] $end
$var reg 16 !" D_Instr [15:0] $end
$var reg 4 "" FUNCFIELD [3:0] $end
$var reg 4 #" OPCODE [3:0] $end
$upscope $end
$scope module DM $end
$var wire 16 $" A_DataAddress [15:0] $end
$var wire 1 B C_DMRead $end
$var wire 1 D C_DMWrite $end
$var wire 16 %" D_WriteData [15:0] $end
$var wire 1 U rst $end
$var reg 16 &" D_Data [15:0] $end
$upscope $end
$scope module MDR $end
$var wire 16 '" MDR_IN [15:0] $end
$var wire 1 T clk $end
$var reg 16 (" MDR_OUT [15:0] $end
$upscope $end
$scope module RF $end
$var wire 4 )" A_Offset [3:0] $end
$var wire 4 *" A_ReadReg1RT [3:0] $end
$var wire 4 +" A_ReadReg2RT [3:0] $end
$var wire 4 ," A_RegSWLW [3:0] $end
$var wire 4 -" A_WriteRegRT_BT [3:0] $end
$var wire 1 C C_MemToReg $end
$var wire 1 Q C_RegDstWrite $end
$var wire 1 R C_RegWrite $end
$var wire 16 ." D_ALU_IN [15:0] $end
$var wire 16 /" D_MDR_IN [15:0] $end
$var wire 1 T clk $end
$var wire 1 U rst $end
$var reg 16 0" D_BT [15:0] $end
$var reg 16 1" D_Offset [15:0] $end
$var reg 16 2" D_ReadReg1RT [15:0] $end
$var reg 16 3" D_ReadReg2RT [15:0] $end
$var reg 16 4" D_RegSW [15:0] $end
$var reg 4 5" a_write [3:0] $end
$var reg 16 6" d_write [15:0] $end
$upscope $end
$scope module se12t16b $end
$var wire 16 7" JUMP_SE_Out [15:0] $end
$var wire 12 8" instr11to0 [11:0] $end
$upscope $end
$scope module se8t16b $end
$var wire 16 9" SE_Out [15:0] $end
$var wire 8 :" instr7to0 [7:0] $end
$upscope $end
$scope module use8t16b $end
$var wire 16 ;" USE_Out [15:0] $end
$var wire 8 <" instr7to0 [7:0] $end
$upscope $end
$scope module l1bs $end
$var wire 16 =" L1S_Out [15:0] $end
$var wire 16 >" SE_Out [15:0] $end
$upscope $end
$scope module MPA $end
$var wire 1 ' C_ALUSrc_A $end
$var wire 3 ?" C_ALUSrc_B [2:0] $end
$var wire 2 @" C_RegDstRead1R [1:0] $end
$var wire 1 P C_RegDstRead2R $end
$var wire 1 V C_SignExtend $end
$var wire 16 A" D_BT [15:0] $end
$var wire 16 B" D_JUMP_SE_Out [15:0] $end
$var wire 16 C" D_L1S_Out [15:0] $end
$var wire 16 D" D_Offset [15:0] $end
$var wire 16 E" D_ReadReg1RT [15:0] $end
$var wire 16 F" D_ReadReg2RT [15:0] $end
$var wire 16 G" D_RegSW [15:0] $end
$var wire 16 H" D_SE_Out [15:0] $end
$var wire 16 I" D_USE_Out [15:0] $end
$var wire 16 J" PC [15:0] $end
$var reg 16 K" ALU_1_IN [15:0] $end
$var reg 16 L" ALU_2_IN [15:0] $end
$var reg 16 M" M1_Out [15:0] $end
$var reg 16 N" M2_Out [15:0] $end
$var reg 16 O" M3_Out [15:0] $end
$upscope $end
$scope module ALU_MAIN $end
$var wire 16 P" a [15:0] $end
$var wire 3 Q" alu_op [2:0] $end
$var wire 16 R" b [15:0] $end
$var reg 16 S" out [15:0] $end
$var reg 1 T" z $end
$upscope $end
$scope module AO $end
$var wire 16 U" ALUOUT_IN [15:0] $end
$var wire 1 T clk $end
$var reg 16 V" ALUOUT_OUT [15:0] $end
$upscope $end
$upscope $end
$upscope $end
$enddefinitions $end
#0
$dumpvars
bx V"
b0 U"
zT"
b0 S"
b1 R"
bx Q"
b1 P"
b0 O"
b1 N"
b1 M"
b1 L"
b1 K"
bx J"
b0xxxxxxxx I"
bx H"
bx G"
bx F"
bx E"
bx D"
bx0 C"
bx B"
bx A"
bx @"
bx ?"
bx >"
bx0 ="
bx <"
b0xxxxxxxx ;"
bx :"
bx 9"
bx 8"
bx 7"
bx 6"
bx 5"
bx 4"
bx 3"
bx 2"
bx 1"
bx 0"
bx /"
bx ."
bx -"
b11xx ,"
bx +"
bx *"
b10xx )"
bx ("
bx '"
bx &"
bx %"
bx $"
bx #"
bx ""
bx !"
bx ~
bx }
bx |
bx {
bx z
bx y
bx x
b10xx w
bx v
b11xx u
bx t
1s
bx r
bx q
b0 p
b0 o
bx n
bx m
b0 l
bx k
xj
xi
xh
xg
bx f
xe
bx d
xc
xb
bx a
x`
x_
x^
x]
bx \
bx [
xZ
bx Y
bx X
bx W
xV
0U
0T
zS
xR
xQ
xP
bx O
bx N
b0 M
xL
bx K
xJ
xI
xH
bx G
xF
xE
xD
xC
xB
bx A
bx @
bx ?
x>
bx =
b0xxxxxxxx <
bx ;
bx :
bx 9
bx 8
bx 7
bx0 6
bx 5
bx 4
bx 3
bx 2
b11xx 1
bx 0
bx /
b10xx .
bx -
bx ,
bx +
b1 *
b1 )
bx (
x'
bx &
b0 %
x$
x#
0"
0!
$end
#500
bx o
bx M
bx p
xE
bx K"
bx )
bx P"
xT"
xS
bx S"
bx %
bx l
bx U"
0F
1J
0$
0#
0h
0R
1]
1>
0^
0B
0`
0D
1e
1L
0c
0I
0b
0H
b1 [
b1 (
b1 ?"
0Z
0'
b0 Y
b0 +
b0 Q"
b0 d
b0 K
b0 m
b1 a
b0 \
bx 5"
b0 &"
b0 @
b0 '"
b0 t
b0 4
b0 y
1"
1U
#1000
1E
0T"
0S
b1 o
b1 M
b1 p
b1 S"
b1 %
b1 l
b1 U"
b0 K"
b0 )
b0 P"
b0 q
b0 N
b0 r
b0 J"
b0 ~
b0 2
b0 -"
b0 }
b1100 1
b1100 u
b1100 ,"
b0 -
b0 v
b0 z
b1000 .
b1000 w
b1000 )"
b0 ,
b0 x
b0 |
b0 0
b0 +"
b0 {
b0 /
b0 *"
b0 ""
b0 =
b0 W
b0 #"
b0 G
b0 X
b0 ("
b0 A
b0 /"
bx 5"
1!
1T
#2000
b0 0"
b0 3
b0 n
b0 A"
b101 4"
b101 :
b101 %"
b101 G"
b1000100010001000 1"
b1000100010001000 7
b1000100010001000 D"
b0 3"
b0 9
b0 F"
b0 2"
b0 8
b0 E"
bx 5"
b100000100100011 t
b100000100100011 4
b100000100100011 y
0!
0T
0"
0U
#3000
xE
b0 N"
b0 M"
zT"
zS
b0 S"
b0 %
b0 l
b0 U"
b0 o
b0 M
b0 p
0J
b1 K"
b1 )
b1 P"
0]
0>
0e
0L
0g
0P
b0 f
b0 O
b0 @"
bx Y
bx +
bx Q"
bx d
bx K
bx m
b110 a
b1000110 6
b1000110 ="
b1000110 C"
b100011 <"
b100011 <
b100011 ;"
b100011 I"
b100011 :"
b100011 ;
b100011 9"
b100011 >"
b100011 H"
b100100011 8"
b100100011 5
b100100011 7"
b100100011 B"
b100100001 t
b100100001 4
b100100001 y
b1 V"
b1 &
b1 k
b1 $"
b1 ."
b1 ~
b1 2
b1 -"
b1 z
b1001 .
b1001 w
b1001 )"
b1 ,
b1 x
b11 |
b11 0
b11 +"
b10 {
b10 /
b10 *"
b11 ""
b11 =
b11 W
b100 #"
b100 G
b100 X
b100000100100011 !"
b100000100100011 ?
b1 q
b1 N
b1 r
b1 J"
b1 \
bx 5"
1!
1T
#4000
0!
0T
#5000
0E
b11 L"
b11 *
b11 R"
b11 K"
b11 )
b11 P"
1T"
1S
b10000 o
b10000 M
b10000 p
1J
1F
1#
b11 N"
b11 M"
1b
1H
1i
1Q
b0 [
b0 (
b0 ?"
1Z
1'
b1 Y
b1 +
b1 Q"
b10 d
b10 K
b10 m
b0 a
b0 V"
b0 &
b0 k
b0 $"
b0 ."
b10000 0"
b10000 3
b10000 n
b10000 A"
b1001100110011001 1"
b1001100110011001 7
b1001100110011001 D"
b11 3"
b11 9
b11 F"
b11 2"
b11 8
b11 E"
b110 \
bx 6"
bx 5"
1!
1T
#6000
0!
0T
#7000
1E
0T"
0S
b1 L"
b1 *
b1 R"
b10000 K"
b10000 )
b10000 P"
b1 N"
b1 M"
b10001 S"
b10001 %
b10001 l
b10001 U"
b10001 o
b10001 M
b10001 p
0F
0#
1]
1>
1e
1L
0b
0H
xi
xQ
xg
xP
bx f
bx O
bx @"
b1 [
b1 (
b1 ?"
0Z
0'
b0 Y
b0 +
b0 Q"
b0 d
b0 K
b0 m
b1 a
b101101000011 t
b101101000011 4
b101101000011 y
b10000 q
b10000 N
b10000 r
b10000 J"
b0 \
bx 6"
bx 5"
1!
1T
#8000
0!
0T
#9000
xE
b11 N"
b11 M"
zT"
zS
b0 S"
b0 %
b0 l
b0 U"
b0 o
b0 M
b0 p
0J
b10001 K"
b10001 )
b10001 P"
0]
0>
0e
0L
0g
0P
b0 f
b0 O
b0 @"
bx Y
bx +
bx Q"
bx d
bx K
bx m
b100110 a
b10000110 6
b10000110 ="
b10000110 C"
b1011101101001000 t
b1011101101001000 4
b1011101101001000 y
b1000011 <"
b1000011 <
b1000011 ;"
b1000011 I"
b1000011 :"
b1000011 ;
b1000011 9"
b1000011 >"
b1000011 H"
b101101000011 8"
b1111101101000011 5
b1111101101000011 7"
b1111101101000011 B"
b10001 q
b10001 N
b10001 r
b10001 J"
b1011 ~
b1011 2
b1011 -"
b10 }
b1110 1
b1110 u
b1110 ,"
b10 -
b10 v
b11 z
b1011 .
b1011 w
b1011 )"
b11 ,
b11 x
b100 {
b100 /
b100 *"
b0 #"
b0 G
b0 X
b101101000011 !"
b101101000011 ?
b10001 V"
b10001 &
b10001 k
b10001 $"
b10001 ."
b1 \
bx 6"
bx 5"
1!
1T
#10000
0!
0T
#11000
0E
b100 L"
b100 *
b100 R"
b11 K"
b11 )
b11 P"
b1000011 O"
b1 N"
1T"
1S
b0 S"
b0 %
b0 l
b0 U"
b11 M"
1i
1Q
xg
xP
b1 f
b1 O
b1 @"
b101 [
b101 (
b101 ?"
1Z
1'
0j
0V
b111 Y
b111 +
b111 Q"
b101000 a
b0 V"
b0 &
b0 k
b0 $"
b0 ."
b11 0"
b11 3
b11 n
b11 A"
b1110111011101110 4"
b1110111011101110 :
b1110111011101110 %"
b1110111011101110 G"
b11 1"
b11 7
b11 D"
b100010001000100 2"
b100010001000100 8
b100010001000100 E"
b100110 \
bx 6"
bx 5"
1!
1T
#12000
0!
0T
#13000
x$
xE
b1 L"
b1 *
b1 R"
b1 K"
b1 )
b1 P"
b0 O"
b1 M"
zT"
zS
xJ
xF
x#
1h
1R
xc
xI
xb
xH
0_
0C
bx f
bx O
bx @"
bx [
bx (
bx ?"
xZ
x'
xj
xV
bx Y
bx +
bx Q"
b0 a
b101000 \
bx 6"
bx 5"
1!
1T
#14000
0!
0T
#15000
b10010 o
b10010 M
b10010 p
1E
b10001 K"
b10001 )
b10001 P"
0T"
0S
b10010 S"
b10010 %
b10010 l
b10010 U"
0F
1J
0$
0#
0h
0R
1]
1>
1e
1L
0c
0I
0b
0H
x_
xC
xi
xQ
b1 [
b1 (
b1 ?"
0Z
0'
b0 Y
b0 +
b0 Q"
b0 d
b0 K
b0 m
b1 a
b0 \
b0 6"
b1011 5"
1!
1T
#16000
0!
0T
#17000
xE
b11 N"
b100010001000100 M"
zT"
zS
b0 S"
b0 %
b0 l
b0 U"
b0 o
b0 M
b0 p
0J
b10010 K"
b10010 )
b10010 P"
0]
0>
0e
0L
0g
0P
b0 f
b0 O
b0 @"
bx Y
bx +
bx Q"
bx d
bx K
bx m
b1001 a
b10010000 6
b10010000 ="
b10010000 C"
b1111101101001000 t
b1111101101001000 4
b1111101101001000 y
b1001000 <"
b1001000 <
b1001000 ;"
b1001000 I"
b1001000 :"
b1001000 ;
b1001000 9"
b1001000 >"
b1001000 H"
b101101001000 8"
b1111101101001000 5
b1111101101001000 7"
b1111101101001000 B"
b10010 q
b10010 N
b10010 r
b10010 J"
b1000 |
b1000 0
b1000 +"
b1000 ""
b1000 =
b1000 W
b1011 #"
b1011 G
b1011 X
b1011101101001000 !"
b1011101101001000 ?
b10010 V"
b10010 &
b10010 k
b10010 $"
b10010 ."
b0 0"
b0 3
b0 n
b0 A"
b0 1"
b0 7
b0 D"
b1 \
bx 6"
bx 5"
1!
1T
#18000
0!
0T
#19000
0E
b1000100010001000 L"
b1000100010001000 *
b1000100010001000 R"
b100010001000100 K"
b100010001000100 )
b100010001000100 P"
1T"
1S
b0 S"
b0 %
b0 l
b0 U"
b1000100010001000 N"
1i
1Q
b0 [
b0 (
b0 ?"
1Z
1'
b10 Y
b10 +
b10 Q"
b101000 a
b0 V"
b0 &
b0 k
b0 $"
b0 ."
b1000100010001000 3"
b1000100010001000 9
b1000100010001000 F"
b1001 \
bx 6"
bx 5"
1!
1T
#20000
0!
0T
#21000
x$
xE
b1 L"
b1 *
b1 R"
b1 K"
b1 )
b1 P"
b1 N"
b1 M"
zT"
zS
xJ
xF
x#
1h
1R
xc
xI
xb
xH
0_
0C
xg
xP
bx f
bx O
bx @"
bx [
bx (
bx ?"
xZ
x'
bx Y
bx +
bx Q"
b0 a
b101000 \
bx 6"
bx 5"
1!
1T
#22000
0!
0T
#23000
b10011 o
b10011 M
b10011 p
1E
b10010 K"
b10010 )
b10010 P"
0T"
0S
b10011 S"
b10011 %
b10011 l
b10011 U"
0F
1J
0$
0#
0h
0R
1]
1>
1e
1L
0c
0I
0b
0H
x_
xC
xi
xQ
b1 [
b1 (
b1 ?"
0Z
0'
b0 Y
b0 +
b0 Q"
b0 d
b0 K
b0 m
b1 a
b0 \
b0 6"
b1011 5"
1!
1T
#24000
0!
0T
#25000
xE
b1000100010001000 N"
b100010001000100 M"
zT"
zS
b0 S"
b0 %
b0 l
b0 U"
b0 o
b0 M
b0 p
0J
b10011 K"
b10011 )
b10011 P"
0]
0>
0e
0L
0g
0P
b0 f
b0 O
b0 @"
bx Y
bx +
bx Q"
bx d
bx K
bx m
b1110 a
b111101111001001 t
b111101111001001 4
b111101111001001 y
b10011 q
b10011 N
b10011 r
b10011 J"
b1111 #"
b1111 G
b1111 X
b1111101101001000 !"
b1111101101001000 ?
b10011 V"
b10011 &
b10011 k
b10011 $"
b10011 ."
b1 \
bx 6"
bx 5"
1!
1T
#26000
0!
0T
#27000
1E
b1000100010001000 L"
b1000100010001000 *
b1000100010001000 R"
b100010001000100 K"
b100010001000100 )
b100010001000100 P"
0T"
0S
b1100110011001100 S"
b1100110011001100 %
b1100110011001100 l
b1100110011001100 U"
1i
1Q
b0 [
b0 (
b0 ?"
1Z
1'
b101 Y
b101 +
b101 Q"
b101000 a
b0 V"
b0 &
b0 k
b0 $"
b0 ."
b1110 \
bx 6"
bx 5"
1!
1T
#28000
0!
0T
#29000
xE
x#
b1 L"
b1 *
b1 R"
b1 K"
b1 )
b1 P"
b1 N"
b1 M"
zT"
zS
b0 S"
b0 %
b0 l
b0 U"
xJ
xF
x$
1h
1R
xc
xI
xb
xH
0_
0C
xg
xP
bx f
bx O
bx @"
bx [
bx (
bx ?"
xZ
x'
bx Y
bx +
bx Q"
b0 a
b1100110011001100 V"
b1100110011001100 &
b1100110011001100 k
b1100110011001100 $"
b1100110011001100 ."
b101000 \
bx 6"
bx 5"
1!
1T
#30000
0!
0T
#31000
b10100 o
b10100 M
b10100 p
1E
b10011 K"
b10011 )
b10011 P"
0T"
0S
b10100 S"
b10100 %
b10100 l
b10100 U"
0F
1J
0$
0#
0h
0R
1]
1>
1e
1L
0c
0I
0b
0H
x_
xC
xi
xQ
b1 [
b1 (
b1 ?"
0Z
0'
b0 Y
b0 +
b0 Q"
b0 d
b0 K
b0 m
b1 a
b0 V"
b0 &
b0 k
b0 $"
b0 ."
b0 \
b1100110011001100 6"
b1011 5"
1!
1T
#32000
0!
0T
#33000
xE
b1000100010001000 N"
b100010001000100 M"
zT"
zS
b0 S"
b0 %
b0 l
b0 U"
b0 o
b0 M
b0 p
0J
b10100 K"
b10100 )
b10100 P"
0]
0>
0e
0L
0g
0P
b0 f
b0 O
b0 @"
bx Y
bx +
bx Q"
bx d
bx K
bx m
b1010 a
b1111111110010010 6
b1111111110010010 ="
b1111111110010010 C"
b110101111001001 t
b110101111001001 4
b110101111001001 y
b11001001 <"
b11001001 <
b11001001 ;"
b11001001 I"
b11001001 :"
b1111111111001001 ;
b1111111111001001 9"
b1111111111001001 >"
b1111111111001001 H"
b101111001001 8"
b1111101111001001 5
b1111101111001001 7"
b1111101111001001 B"
b10100 q
b10100 N
b10100 r
b10100 J"
b1001 |
b1001 0
b1001 +"
b1100 {
b1100 /
b1100 *"
b1001 ""
b1001 =
b1001 W
b111 #"
b111 G
b111 X
b111101111001001 !"
b111101111001001 ?
b10100 V"
b10100 &
b10100 k
b10100 $"
b10100 ."
b1100110011001100 0"
b1100110011001100 3
b1100110011001100 n
b1100110011001100 A"
b1100110011001100 1"
b1100110011001100 7
b1100110011001100 D"
b1 \
bx 6"
bx 5"
1!
1T
#34000
0!
0T
#35000
1E
b0 L"
b0 *
b0 R"
b1100110011001100 K"
b1100110011001100 )
b1100110011001100 P"
0T"
0S
b1100110011001100 S"
b1100110011001100 %
b1100110011001100 l
b1100110011001100 U"
b1 N"
b1100110011001100 M"
1i
1Q
xg
xP
b1 f
b1 O
b1 @"
b10 [
b10 (
b10 ?"
1Z
1'
b10 Y
b10 +
b10 Q"
b101000 a
b0 V"
b0 &
b0 k
b0 $"
b0 ."
b1001100110011001 3"
b1001100110011001 9
b1001100110011001 F"
b101 2"
b101 8
b101 E"
b1010 \
bx 6"
bx 5"
1!
1T
#36000
0!
0T
#37000
xE
x#
b1 L"
b1 *
b1 R"
b1 K"
b1 )
b1 P"
b1 M"
zT"
zS
b0 S"
b0 %
b0 l
b0 U"
xJ
xF
x$
1h
1R
xc
xI
xb
xH
0_
0C
bx f
bx O
bx @"
bx [
bx (
bx ?"
xZ
x'
bx Y
bx +
bx Q"
b0 a
b1100110011001100 V"
b1100110011001100 &
b1100110011001100 k
b1100110011001100 $"
b1100110011001100 ."
b101000 \
bx 6"
bx 5"
1!
1T
#38000
0!
0T
#39000
b10101 o
b10101 M
b10101 p
1E
b10100 K"
b10100 )
b10100 P"
0T"
0S
b10101 S"
b10101 %
b10101 l
b10101 U"
0F
1J
0$
0#
0h
0R
1]
1>
1e
1L
0c
0I
0b
0H
x_
xC
xi
xQ
b1 [
b1 (
b1 ?"
0Z
0'
b0 Y
b0 +
b0 Q"
b0 d
b0 K
b0 m
b1 a
b0 V"
b0 &
b0 k
b0 $"
b0 ."
b0 \
b1100110011001100 6"
b1011 5"
1!
1T
#40000
0!
0T
#41000
xE
b1001100110011001 N"
b101 M"
zT"
zS
b0 S"
b0 %
b0 l
b0 U"
b0 o
b0 M
b0 p
0J
b10101 K"
b10101 )
b10101 P"
0]
0>
0e
0L
0g
0P
b0 f
b0 O
b0 @"
bx Y
bx +
bx Q"
bx d
bx K
bx m
b1111 a
b100101101001000 t
b100101101001000 4
b100101101001000 y
b10101 q
b10101 N
b10101 r
b10101 J"
b110 #"
b110 G
b110 X
b110101111001001 !"
b110101111001001 ?
b10101 V"
b10101 &
b10101 k
b10101 $"
b10101 ."
b1 \
bx 6"
bx 5"
1!
1T
#42000
0!
0T
#43000
1E
b1111111111001001 L"
b1111111111001001 *
b1111111111001001 R"
b1100110011001100 K"
b1100110011001100 )
b1100110011001100 P"
b1111111111001001 O"
b1100110011001100 M"
0T"
0S
b1111111111001101 S"
b1111111111001101 %
b1111111111001101 l
b1111111111001101 U"
1i
1Q
b1 f
b1 O
b1 @"
b10 [
b10 (
b10 ?"
1Z
1'
1j
1V
b101 Y
b101 +
b101 Q"
b101000 a
b0 V"
b0 &
b0 k
b0 $"
b0 ."
b1111 \
bx 6"
bx 5"
1!
1T
#44000
0!
0T
#45000
xE
x#
b1 L"
b1 *
b1 R"
b1 K"
b1 )
b1 P"
b0 O"
b1 N"
b1 M"
zT"
zS
b0 S"
b0 %
b0 l
b0 U"
xJ
xF
x$
1h
1R
xc
xI
xb
xH
0_
0C
xg
xP
bx f
bx O
bx @"
bx [
bx (
bx ?"
xZ
x'
xj
xV
bx Y
bx +
bx Q"
b0 a
b1111111111001101 V"
b1111111111001101 &
b1111111111001101 k
b1111111111001101 $"
b1111111111001101 ."
b101000 \
bx 6"
bx 5"
1!
1T
#46000
0!
0T
#47000
b10110 o
b10110 M
b10110 p
1E
b10101 K"
b10101 )
b10101 P"
0T"
0S
b10110 S"
b10110 %
b10110 l
b10110 U"
0F
1J
0$
0#
0h
0R
1]
1>
1e
1L
0c
0I
0b
0H
x_
xC
xi
xQ
b1 [
b1 (
b1 ?"
0Z
0'
b0 Y
b0 +
b0 Q"
b0 d
b0 K
b0 m
b1 a
b0 V"
b0 &
b0 k
b0 $"
b0 ."
b0 \
b1111111111001101 6"
b1011 5"
1!
1T
#48000
0!
0T
#49000
xE
b1001100110011001 N"
b101 M"
zT"
zS
b0 S"
b0 %
b0 l
b0 U"
b0 o
b0 M
b0 p
0J
b10110 K"
b10110 )
b10110 P"
0]
0>
0e
0L
0g
0P
b0 f
b0 O
b0 @"
bx Y
bx +
bx Q"
bx d
bx K
bx m
b110 a
b10010000 6
b10010000 ="
b10010000 C"
b101101101001000 t
b101101101001000 4
b101101101001000 y
b1001000 <"
b1001000 <
b1001000 ;"
b1001000 I"
b1001000 :"
b1001000 ;
b1001000 9"
b1001000 >"
b1001000 H"
b101101001000 8"
b1111101101001000 5
b1111101101001000 7"
b1111101101001000 B"
b10110 q
b10110 N
b10110 r
b10110 J"
b1000 |
b1000 0
b1000 +"
b100 {
b100 /
b100 *"
b1000 ""
b1000 =
b1000 W
b100 #"
b100 G
b100 X
b100101101001000 !"
b100101101001000 ?
b10110 V"
b10110 &
b10110 k
b10110 $"
b10110 ."
b1111111111001101 0"
b1111111111001101 3
b1111111111001101 n
b1111111111001101 A"
b1111111111001101 1"
b1111111111001101 7
b1111111111001101 D"
b1 \
bx 6"
bx 5"
1!
1T
#50000
0!
0T
#51000
1E
b1000100010001000 L"
b1000100010001000 *
b1000100010001000 R"
b100010001000100 K"
b100010001000100 )
b100010001000100 P"
0T"
0S
b1011101110111100 S"
b1011101110111100 %
b1011101110111100 l
b1011101110111100 U"
b1111111111001101 o
b1111111111001101 M
b1111111111001101 p
0J
0F
0#
b1000100010001000 N"
b100010001000100 M"
1b
1H
1i
1Q
b0 [
b0 (
b0 ?"
1Z
1'
b1 Y
b1 +
b1 Q"
b10 d
b10 K
b10 m
b0 a
b0 V"
b0 &
b0 k
b0 $"
b0 ."
b1000100010001000 3"
b1000100010001000 9
b1000100010001000 F"
b100010001000100 2"
b100010001000100 8
b100010001000100 E"
b110 \
bx 6"
bx 5"
1!
1T
#52000
0!
0T
#53000
b1 L"
b1 *
b1 R"
b10110 K"
b10110 )
b10110 P"
b1 N"
b1 M"
b10111 S"
b10111 %
b10111 l
b10111 U"
b10111 o
b10111 M
b10111 p
1J
1]
1>
1e
1L
0b
0H
xi
xQ
xg
xP
bx f
bx O
bx @"
b1 [
b1 (
b1 ?"
0Z
0'
b0 Y
b0 +
b0 Q"
b0 d
b0 K
b0 m
b1 a
b1011101110111100 V"
b1011101110111100 &
b1011101110111100 k
b1011101110111100 $"
b1011101110111100 ."
b0 \
bx 6"
bx 5"
1!
1T
#54000
0!
0T
#55000
xE
b1000100010001000 N"
b100010001000100 M"
zT"
zS
b0 S"
b0 %
b0 l
b0 U"
b0 o
b0 M
b0 p
0J
b10111 K"
b10111 )
b10111 P"
0]
0>
0e
0L
0g
0P
b0 f
b0 O
b0 @"
bx Y
bx +
bx Q"
bx d
bx K
bx m
b111 a
b11101101111000 t
b11101101111000 4
b11101101111000 y
b10111 V"
b10111 &
b10111 k
b10111 $"
b10111 ."
b101 #"
b101 G
b101 X
b101101101001000 !"
b101101101001000 ?
b10111 q
b10111 N
b10111 r
b10111 J"
b1 \
bx 6"
bx 5"
1!
1T
#56000
0!
0T
#57000
1E
b1000100010001000 L"
b1000100010001000 *
b1000100010001000 R"
b100010001000100 K"
b100010001000100 )
b100010001000100 P"
0T"
0S
b1011101110111100 S"
b1011101110111100 %
b1011101110111100 l
b1011101110111100 U"
b1111111111001101 o
b1111111111001101 M
b1111111111001101 p
1J
1F
1$
1c
1I
1i
1Q
b0 [
b0 (
b0 ?"
1Z
1'
b1 Y
b1 +
b1 Q"
b10 d
b10 K
b10 m
b0 a
b0 V"
b0 &
b0 k
b0 $"
b0 ."
b111 \
bx 6"
bx 5"
1!
1T
#58000
0!
0T
#59000
b1 L"
b1 *
b1 R"
b1111111111001101 K"
b1111111111001101 )
b1111111111001101 P"
b1 N"
b1 M"
b1111111111001110 S"
b1111111111001110 %
b1111111111001110 l
b1111111111001110 U"
b1111111111001110 o
b1111111111001110 M
b1111111111001110 p
0F
0$
1]
1>
1e
1L
0c
0I
xi
xQ
xg
xP
bx f
bx O
bx @"
b1 [
b1 (
b1 ?"
0Z
0'
b0 Y
b0 +
b0 Q"
b0 d
b0 K
b0 m
b1 a
bx t
bx 4
bx y
b1011101110111100 V"
b1011101110111100 &
b1011101110111100 k
b1011101110111100 $"
b1011101110111100 ."
b1111111111001101 q
b1111111111001101 N
b1111111111001101 r
b1111111111001101 J"
b0 \
bx 6"
bx 5"
1!
1T
#60000
0!
0T
