TOP.vcd
$date
	Thu Apr  5 05:24:35 2018
$end
$version
	Icarus Verilog
$end
$timescale
	10ps
$end
$scope module tb_TOP $end
$var reg 1 ! clk $end
$var reg 1 " rst $end
$scope module uut $end
$var wire 1 # A1_Out $end
$var wire 1 $ A2_Out $end
$var wire 16 % ALUOUT_IN [15:0] $end
$var wire 16 & ALUOUT_OUT [15:0] $end
$var wire 1 ' ALUSrcA $end
$var wire 3 ( ALUSrcB [2:0] $end
$var wire 16 ) ALU_1_IN [15:0] $end
$var wire 16 * ALU_2_IN [15:0] $end
$var wire 3 + ALU_OP [2:0] $end
$var wire 2 , A_2bit_Offset [1:0] $end
$var wire 2 - A_2bit_RegSWLW [1:0] $end
$var wire 4 . A_Offset [3:0] $end
$var wire 4 / A_ReadReg1RT [3:0] $end
$var wire 4 0 A_ReadReg2RT [3:0] $end
$var wire 4 1 A_RegSWLW [3:0] $end
$var wire 4 2 A_WriteRegRT_BT [3:0] $end
$var wire 1 3 C_MemToReg $end
$var wire 1 4 C_RegDstWrite $end
$var wire 1 5 C_RegWrite $end
$var wire 16 6 D_BT [15:0] $end
$var wire 16 7 D_Instruction [15:0] $end
$var wire 16 8 D_JUMP_SE_Out [15:0] $end
$var wire 16 9 D_L1S_Out [15:0] $end
$var wire 16 : D_Offset [15:0] $end
$var wire 16 ; D_ReadReg1RT [15:0] $end
$var wire 16 < D_ReadReg2RT [15:0] $end
$var wire 16 = D_RegSW [15:0] $end
$var wire 16 > D_SE_Out [15:0] $end
$var wire 16 ? D_USE_Out [15:0] $end
$var wire 4 @ FUNCFIELD [3:0] $end
$var wire 1 A IRWrite $end
$var wire 16 B IR_InstructionOut [15:0] $end
$var wire 16 C MDR_IN [15:0] $end
$var wire 16 D MDR_OUT [15:0] $end
$var wire 1 E MemRead $end
$var wire 1 F MemToReg $end
$var wire 1 G MemWrite $end
$var wire 1 H NZERO $end
$var wire 1 I O1_Out $end
$var wire 4 J OPCODE [3:0] $end
$var wire 1 K PCBEqCond $end
$var wire 1 L PCBNqCond $end
$var wire 1 M PCEnableWrite $end
$var wire 2 N PCSrc [1:0] $end
$var wire 1 O PCWrite $end
$var wire 16 P PC_IN [15:0] $end
$var wire 16 Q PC_OUT [15:0] $end
$var wire 2 R ReadR1 [1:0] $end
$var wire 1 S ReadR2 $end
$var wire 1 T RegWrite $end
$var wire 1 U RegWriteDst $end
$var wire 1 V ZERO_OUT $end
$var wire 1 W clk $end
$var wire 1 X rst $end
$var wire 1 Y sign_extend $end
$scope module FSM_Main $end
$var wire 1 W clk $end
$var wire 4 Z func_field [3:0] $end
$var wire 4 [ opcode [3:0] $end
$var wire 1 X rst $end
$var reg 3 \ ALUOp [2:0] $end
$var reg 1 ] ALUSrcA $end
$var reg 3 ^ ALUSrcB [2:0] $end
$var reg 6 _ CurrentState [5:0] $end
$var reg 1 ` IRWrite $end
$var reg 1 a MemRead $end
$var reg 1 b MemToReg $end
$var reg 1 c MemWrite $end
$var reg 6 d NextState [5:0] $end
$var reg 1 e PCBEqCond $end
$var reg 1 f PCBNqCond $end
$var reg 2 g PCSrc [1:0] $end
$var reg 1 h PCWrite $end
$var reg 2 i ReadR1 [1:0] $end
$var reg 1 j ReadR2 $end
$var reg 1 k RegWrite $end
$var reg 1 l RegWriteDst $end
$var reg 1 m sign_extend $end
$upscope $end
$scope module MPC $end
$var wire 16 n ALUOut_result [15:0] $end
$var wire 16 o ALU_result [15:0] $end
$var wire 2 p C_PCSource [1:0] $end
$var wire 16 q RF_result [15:0] $end
$var reg 16 r PC_IN [15:0] $end
$upscope $end
$scope module ProgCount $end
$var wire 1 M C_PCWrite $end
$var wire 16 s PC_IN [15:0] $end
$var wire 1 W clk $end
$var wire 1 X rst $end
$var reg 16 t PC_OUT [15:0] $end
$upscope $end
$scope module IM $end
$var wire 16 u A_InstrAddress [15:0] $end
$var wire 1 v C_IMRead $end
$var wire 1 X rst $end
$var reg 16 w D_Instruction [15:0] $end
$upscope $end
$scope module c11 $end
$var wire 4 x c11out [3:0] $end
$var wire 2 y instr9to8 [1:0] $end
$upscope $end
$scope module c10 $end
$var wire 4 z c10out [3:0] $end
$var wire 2 { instr10to11 [1:0] $end
$upscope $end
$scope module IR $end
$var wire 1 A C_IRWrite $end
$var wire 16 | D_MemData [15:0] $end
$var wire 1 W clk $end
$var wire 1 X rst $end
$var reg 2 } A_Offset [1:0] $end
$var reg 4 ~ A_ReadReg1RT [3:0] $end
$var reg 4 !" A_ReadReg2RT [3:0] $end
$var reg 2 "" A_RegSWLW [1:0] $end
$var reg 4 #" A_WriteRegRT_BT [3:0] $end
$var reg 16 $" D_Instr [15:0] $end
$var reg 4 %" FUNCFIELD [3:0] $end
$var reg 4 &" OPCODE [3:0] $end
$upscope $end
$scope module DM $end
$var wire 16 '" A_DataAddress [15:0] $end
$var wire 1 E C_DMRead $end
$var wire 1 G C_DMWrite $end
$var wire 16 (" D_WriteData [15:0] $end
$var wire 1 X rst $end
$var reg 16 )" D_Data [15:0] $end
$upscope $end
$scope module MDR $end
$var wire 16 *" MDR_IN [15:0] $end
$var wire 1 W clk $end
$var reg 16 +" MDR_OUT [15:0] $end
$upscope $end
$scope module RF $end
$var wire 4 ," A_Offset [3:0] $end
$var wire 4 -" A_ReadReg1RT [3:0] $end
$var wire 4 ." A_ReadReg2RT [3:0] $end
$var wire 4 /" A_RegSWLW [3:0] $end
$var wire 4 0" A_WriteRegRT_BT [3:0] $end
$var wire 1 3 C_MemToReg $end
$var wire 1 4 C_RegDstWrite $end
$var wire 1 5 C_RegWrite $end
$var wire 16 1" D_ALU_IN [15:0] $end
$var wire 16 2" D_MDR_IN [15:0] $end
$var wire 1 W clk $end
$var wire 1 X rst $end
$var reg 16 3" D_BT [15:0] $end
$var reg 16 4" D_Offset [15:0] $end
$var reg 16 5" D_ReadReg1RT [15:0] $end
$var reg 16 6" D_ReadReg2RT [15:0] $end
$var reg 16 7" D_RegSW [15:0] $end
$var reg 4 8" a_write [3:0] $end
$var reg 16 9" d_write [15:0] $end
$upscope $end
$scope module se12t16b $end
$var wire 16 :" JUMP_SE_Out [15:0] $end
$var wire 12 ;" instr11to0 [11:0] $end
$upscope $end
$scope module se8t16b $end
$var wire 16 <" SE_Out [15:0] $end
$var wire 8 =" instr7to0 [7:0] $end
$upscope $end
$scope module use8t16b $end
$var wire 16 >" USE_Out [15:0] $end
$var wire 8 ?" instr7to0 [7:0] $end
$upscope $end
$scope module l1bs $end
$var wire 16 @" L1S_Out [15:0] $end
$var wire 16 A" SE_Out [15:0] $end
$upscope $end
$scope module MPA $end
$var wire 1 ' C_ALUSrc_A $end
$var wire 3 B" C_ALUSrc_B [2:0] $end
$var wire 2 C" C_RegDstRead1R [1:0] $end
$var wire 1 S C_RegDstRead2R $end
$var wire 1 Y C_SignExtend $end
$var wire 16 D" D_BT [15:0] $end
$var wire 16 E" D_JUMP_SE_Out [15:0] $end
$var wire 16 F" D_L1S_Out [15:0] $end
$var wire 16 G" D_Offset [15:0] $end
$var wire 16 H" D_ReadReg1RT [15:0] $end
$var wire 16 I" D_ReadReg2RT [15:0] $end
$var wire 16 J" D_RegSW [15:0] $end
$var wire 16 K" D_SE_Out [15:0] $end
$var wire 16 L" D_USE_Out [15:0] $end
$var wire 16 M" PC [15:0] $end
$var reg 16 N" ALU_1_IN [15:0] $end
$var reg 16 O" ALU_2_IN [15:0] $end
$var reg 16 P" M1_Out [15:0] $end
$var reg 16 Q" M2_Out [15:0] $end
$var reg 16 R" M3_Out [15:0] $end
$upscope $end
$scope module ALU_MAIN $end
$var wire 16 S" a [15:0] $end
$var wire 3 T" alu_op [2:0] $end
$var wire 16 U" b [15:0] $end
$var reg 16 V" out [15:0] $end
$var reg 1 W" z $end
$upscope $end
$scope module AO $end
$var wire 16 X" ALUOUT_IN [15:0] $end
$var wire 1 W clk $end
$var reg 16 Y" ALUOUT_OUT [15:0] $end
$upscope $end
$upscope $end
$upscope $end
$enddefinitions $end
#0
$dumpvars
bx Y"
b0 X"
zW"
b0 V"
b0 U"
bx T"
b0 S"
b0 R"
b0 Q"
b0 P"
b0 O"
b0 N"
bx M"
b0zzzzzzzz L"
bx K"
bx J"
bx I"
bx H"
bx G"
bx0 F"
bx E"
bx D"
bx C"
bx B"
bx A"
bx0 @"
bz ?"
b0zzzzzzzz >"
bx ="
bx <"
bx ;"
bx :"
bx 9"
bx 8"
bx 7"
bx 6"
bx 5"
bx 4"
bx 3"
bx 2"
bx 1"
bx 0"
b11xx /"
bx ."
bx -"
b10xx ,"
bx +"
bx *"
bx )"
bx ("
bx '"
bx &"
bx %"
bx $"
bx #"
bx ""
bx !"
bx ~
bx }
bx |
bx {
b10xx z
bx y
b11xx x
bx w
1v
bx u
bx t
b0 s
b0 r
bx q
bx p
b0 o
bx n
xm
xl
xk
xj
bx i
xh
bx g
xf
xe
bx d
xc
xb
xa
x`
bx _
bx ^
x]
bx \
bx [
bx Z
xY
0X
0W
zV
xU
xT
xS
bx R
bx Q
b0 P
xO
bx N
xM
xL
xK
bx J
xI
xH
xG
xF
xE
bx D
bx C
bx B
xA
bx @
b0zzzzzzzz ?
bx >
bx =
bx <
bx ;
bx :
bx0 9
bx 8
bx 7
bx 6
z5
z4
z3
bx 2
b11xx 1
bx 0
bx /
b10xx .
bx -
bx ,
bx +
b0 *
b0 )
bx (
x'
bx &
b0 %
x$
x#
0"
0!
$end
#500
bx r
bx P
bx s
bx V"
bx %
bx o
bx X"
xH
b10 O"
b10 *
b10 U"
bx N"
bx )
bx S"
xW"
xV
0I
1M
0$
0#
0k
0T
1`
1A
0a
0E
0c
0G
1h
1O
0f
0L
0e
0K
b1 ^
b1 (
b1 B"
0]
0'
b0 \
b0 +
b0 T"
b0 g
b0 N
b0 p
b1 d
b0 _
b0 )"
b0 C
b0 *"
b0 w
b0 7
b0 |
1"
1X
#1000
1H
0W"
0V
b10 r
b10 P
b10 s
b10 V"
b10 %
b10 o
b10 X"
b0 N"
b0 )
b0 S"
b0 t
b0 Q
b0 u
b0 M"
b0 #"
b0 2
b0 0"
b0 ""
b1100 1
b1100 x
b1100 /"
b0 -
b0 y
b0 }
b1000 .
b1000 z
b1000 ,"
b0 ,
b0 {
b0 !"
b0 0
b0 ."
b0 ~
b0 /
b0 -"
b0 %"
b0 @
b0 Z
b0 &"
b0 J
b0 [
b0 +"
b0 D
b0 2"
1!
1W
#2000
b0 3"
b0 6
b0 q
b0 D"
b0 7"
b0 =
b0 ("
b0 J"
b0 4"
b0 :
b0 G"
b0 6"
b0 <
b0 I"
b0 5"
b0 ;
b0 H"
bx 8"
b1001111001001 w
b1001111001001 7
b1001111001001 |
0!
0W
0"
0X
#3000
xH
zW"
zV
b0 V"
b0 %
b0 o
b0 X"
b0 r
b0 P
b0 s
0M
b10 N"
b10 )
b10 S"
0`
0A
0h
0O
0j
0S
b0 i
b0 R
b0 C"
bx \
bx +
bx T"
bx g
bx N
bx p
b101 d
b1111111110010010 9
b1111111110010010 @"
b1111111110010010 F"
b1111001001 ;"
b1111001001 8
b1111001001 :"
b1111001001 E"
b11001001 ="
b1111111111001001 >
b1111111111001001 <"
b1111111111001001 A"
b1111111111001001 K"
b1101111001001 w
b1101111001001 7
b1101111001001 |
b10 Y"
b10 &
b10 n
b10 '"
b10 1"
b11 #"
b11 2
b11 0"
b11 }
b1011 .
b1011 z
b1011 ,"
b11 ,
b11 {
b1001 !"
b1001 0
b1001 ."
b1100 ~
b1100 /
b1100 -"
b1001 %"
b1001 @
b1001 Z
b1 &"
b1 J
b1 [
b1001111001001 $"
b1001111001001 B
b10 t
b10 Q
b10 u
b10 M"
b1 _
bx 8"
1!
1W
#4000
0!
0W
#5000
1H
b1111111110010010 O"
b1111111110010010 *
b1111111110010010 U"
b0 N"
b0 )
b0 S"
b1111111111001001 R"
0W"
0V
b1111111110010010 V"
b1111111110010010 %
b1111111110010010 o
b1111111110010010 X"
0l
0U
1j
1S
b10 i
b10 R
b10 C"
b11 ^
b11 (
b11 B"
1]
1'
1m
1Y
b0 \
b0 +
b0 T"
b100011 d
b0 Y"
b0 &
b0 n
b0 '"
b0 1"
b101 _
bx 9"
bx 8"
1!
1W
#6000
0!
0W
#7000
xH
x#
bx )"
bx C
bx *"
b0 O"
b0 *
b0 U"
b0 R"
zW"
zV
b0 V"
b0 %
b0 o
b0 X"
xM
xI
x$
1a
1E
xf
xL
xe
xK
xl
xU
xj
xS
bx i
bx R
bx C"
bx ^
bx (
bx B"
x]
x'
xm
xY
bx \
bx +
bx T"
b111111 d
b1111111110010010 Y"
b1111111110010010 &
b1111111110010010 n
b1111111110010010 '"
b1111111110010010 1"
b100011 _
bx 9"
bx 8"
1!
1W
#8000
0!
0W
#9000
b1111111111111111 )"
b1111111111111111 C
b1111111111111111 *"
1k
1T
0a
0E
1l
1U
b0 d
bx +"
bx D
bx 2"
b0 Y"
b0 &
b0 n
b0 '"
b0 1"
b111111 _
bx 9"
bx 8"
1!
1W
#10000
0!
0W
#11000
b100 r
b100 P
b100 s
b100 V"
b100 %
b100 o
b100 X"
1H
b10 O"
b10 *
b10 U"
b10 N"
b10 )
b10 S"
0W"
0V
0I
1M
0$
0#
0k
0T
1`
1A
1h
1O
0f
0L
0e
0K
xl
xU
b1 ^
b1 (
b1 B"
0]
0'
b0 \
b0 +
b0 T"
b0 g
b0 N
b0 p
b1 d
b1111111111111111 +"
b1111111111111111 D
b1111111111111111 2"
b0 _
bx 9"
bx 8"
1!
1W
#12000
0!
0W
#13000
xH
zW"
zV
b0 V"
b0 %
b0 o
b0 X"
b0 r
b0 P
b0 s
0M
b100 N"
b100 )
b100 S"
0`
0A
0h
0O
0j
0S
b0 i
b0 R
b0 C"
bx \
bx +
bx T"
bx g
bx N
bx p
b101 d
b1001011001001 w
b1001011001001 7
b1001011001001 |
b101111001001 ;"
b1111101111001001 8
b1111101111001001 :"
b1111101111001001 E"
b100 t
b100 Q
b100 u
b100 M"
b1011 #"
b1011 2
b1011 0"
b10 ""
b1110 1
b1110 x
b1110 /"
b10 -
b10 y
b1101111001001 $"
b1101111001001 B
b100 Y"
b100 &
b100 n
b100 '"
b100 1"
b1 _
bx 9"
bx 8"
1!
1W
#14000
0!
0W
#15000
1H
b1111111110010010 O"
b1111111110010010 *
b1111111110010010 U"
b0 N"
b0 )
b0 S"
b1111111111001001 R"
0W"
0V
b1111111110010010 V"
b1111111110010010 %
b1111111110010010 o
b1111111110010010 X"
0l
0U
1j
1S
b10 i
b10 R
b10 C"
b11 ^
b11 (
b11 B"
1]
1'
1m
1Y
b0 \
b0 +
b0 T"
b100011 d
b0 Y"
b0 &
b0 n
b0 '"
b0 1"
b101 _
bx 9"
bx 8"
1!
1W
#16000
0!
0W
#17000
xH
x#
bx )"
bx C
bx *"
b0 O"
b0 *
b0 U"
b0 R"
zW"
zV
b0 V"
b0 %
b0 o
b0 X"
xM
xI
x$
1a
1E
xf
xL
xe
xK
xl
xU
xj
xS
bx i
bx R
bx C"
bx ^
bx (
bx B"
x]
x'
xm
xY
bx \
bx +
bx T"
b111111 d
b1111111110010010 Y"
b1111111110010010 &
b1111111110010010 n
b1111111110010010 '"
b1111111110010010 1"
b100011 _
bx 9"
bx 8"
1!
1W
#18000
0!
0W
#19000
b1111111111111111 )"
b1111111111111111 C
b1111111111111111 *"
1k
1T
0a
0E
1l
1U
b0 d
b0 Y"
b0 &
b0 n
b0 '"
b0 1"
bx +"
bx D
bx 2"
b111111 _
bx 9"
bx 8"
1!
1W
#20000
0!
0W
#21000
b110 r
b110 P
b110 s
b110 V"
b110 %
b110 o
b110 X"
1H
b10 O"
b10 *
b10 U"
b100 N"
b100 )
b100 S"
0W"
0V
0I
1M
0$
0#
0k
0T
1`
1A
1h
1O
0f
0L
0e
0K
xl
xU
b1 ^
b1 (
b1 B"
0]
0'
b0 \
b0 +
b0 T"
b0 g
b0 N
b0 p
b1 d
b1111111111111111 +"
b1111111111111111 D
b1111111111111111 2"
b0 _
bx 9"
bx 8"
1!
1W
#22000
0!
0W
#23000
xH
zW"
zV
b0 V"
b0 %
b0 o
b0 X"
b0 r
b0 P
b0 s
0M
b110 N"
b110 )
b110 S"
0`
0A
0h
0O
0j
0S
b0 i
b0 R
b0 C"
bx \
bx +
bx T"
bx g
bx N
bx p
b101 d
b1011001001 ;"
b1011001001 8
b1011001001 :"
b1011001001 E"
b1101011001001 w
b1101011001001 7
b1101011001001 |
b110 Y"
b110 &
b110 n
b110 '"
b110 1"
b10 #"
b10 2
b10 0"
b0 ""
b1100 1
b1100 x
b1100 /"
b0 -
b0 y
b10 }
b1010 .
b1010 z
b1010 ,"
b10 ,
b10 {
b1001011001001 $"
b1001011001001 B
b110 t
b110 Q
b110 u
b110 M"
b1 _
bx 9"
bx 8"
1!
1W
#24000
0!
0W
#25000
1H
b1111111110010010 O"
b1111111110010010 *
b1111111110010010 U"
b0 N"
b0 )
b0 S"
b1111111111001001 R"
0W"
0V
b1111111110010010 V"
b1111111110010010 %
b1111111110010010 o
b1111111110010010 X"
0l
0U
1j
1S
b10 i
b10 R
b10 C"
b11 ^
b11 (
b11 B"
1]
1'
1m
1Y
b0 \
b0 +
b0 T"
b100011 d
b0 Y"
b0 &
b0 n
b0 '"
b0 1"
b101 _
bx 9"
bx 8"
1!
1W
#26000
0!
0W
#27000
xH
x#
bx )"
bx C
bx *"
b0 O"
b0 *
b0 U"
b0 R"
zW"
zV
b0 V"
b0 %
b0 o
b0 X"
xM
xI
x$
1a
1E
xf
xL
xe
xK
xl
xU
xj
xS
bx i
bx R
bx C"
bx ^
bx (
bx B"
x]
x'
xm
xY
bx \
bx +
bx T"
b111111 d
b1111111110010010 Y"
b1111111110010010 &
b1111111110010010 n
b1111111110010010 '"
b1111111110010010 1"
b100011 _
bx 9"
bx 8"
1!
1W
#28000
0!
0W
#29000
b1111111111111111 )"
b1111111111111111 C
b1111111111111111 *"
1k
1T
0a
0E
1l
1U
b0 d
bx +"
bx D
bx 2"
b0 Y"
b0 &
b0 n
b0 '"
b0 1"
b111111 _
bx 9"
bx 8"
1!
1W
#30000
0!
0W
#31000
b1000 r
b1000 P
b1000 s
b1000 V"
b1000 %
b1000 o
b1000 X"
1H
b10 O"
b10 *
b10 U"
b110 N"
b110 )
b110 S"
0W"
0V
0I
1M
0$
0#
0k
0T
1`
1A
1h
1O
0f
0L
0e
0K
xl
xU
b1 ^
b1 (
b1 B"
0]
0'
b0 \
b0 +
b0 T"
b0 g
b0 N
b0 p
b1 d
b1111111111111111 +"
b1111111111111111 D
b1111111111111111 2"
b0 _
bx 9"
bx 8"
1!
1W
#32000
0!
0W
#33000
xH
zW"
zV
b0 V"
b0 %
b0 o
b0 X"
b0 r
b0 P
b0 s
0M
b1000 N"
b1000 )
b1000 S"
0`
0A
0h
0O
0j
0S
b0 i
b0 R
b0 C"
bx \
bx +
bx T"
bx g
bx N
bx p
b101 d
b1000111001001 w
b1000111001001 7
b1000111001001 |
b101011001001 ;"
b1111101011001001 8
b1111101011001001 :"
b1111101011001001 E"
b1000 t
b1000 Q
b1000 u
b1000 M"
b1010 #"
b1010 2
b1010 0"
b10 ""
b1110 1
b1110 x
b1110 /"
b10 -
b10 y
b1101011001001 $"
b1101011001001 B
b1000 Y"
b1000 &
b1000 n
b1000 '"
b1000 1"
b1 _
bx 9"
bx 8"
1!
1W
#34000
0!
0W
#35000
1H
b1111111110010010 O"
b1111111110010010 *
b1111111110010010 U"
b0 N"
b0 )
b0 S"
b1111111111001001 R"
0W"
0V
b1111111110010010 V"
b1111111110010010 %
b1111111110010010 o
b1111111110010010 X"
0l
0U
1j
1S
b10 i
b10 R
b10 C"
b11 ^
b11 (
b11 B"
1]
1'
1m
1Y
b0 \
b0 +
b0 T"
b100011 d
b0 Y"
b0 &
b0 n
b0 '"
b0 1"
b101 _
bx 9"
bx 8"
1!
1W
#36000
0!
0W
#37000
xH
x#
bx )"
bx C
bx *"
b0 O"
b0 *
b0 U"
b0 R"
zW"
zV
b0 V"
b0 %
b0 o
b0 X"
xM
xI
x$
1a
1E
xf
xL
xe
xK
xl
xU
xj
xS
bx i
bx R
bx C"
bx ^
bx (
bx B"
x]
x'
xm
xY
bx \
bx +
bx T"
b111111 d
b1111111110010010 Y"
b1111111110010010 &
b1111111110010010 n
b1111111110010010 '"
b1111111110010010 1"
b100011 _
bx 9"
bx 8"
1!
1W
#38000
0!
0W
#39000
b1111111111111111 )"
b1111111111111111 C
b1111111111111111 *"
1k
1T
0a
0E
1l
1U
b0 d
b0 Y"
b0 &
b0 n
b0 '"
b0 1"
bx +"
bx D
bx 2"
b111111 _
bx 9"
bx 8"
1!
1W
#40000
0!
0W
#41000
b1010 r
b1010 P
b1010 s
b1010 V"
b1010 %
b1010 o
b1010 X"
1H
b10 O"
b10 *
b10 U"
b1000 N"
b1000 )
b1000 S"
0W"
0V
0I
1M
0$
0#
0k
0T
1`
1A
1h
1O
0f
0L
0e
0K
xl
xU
b1 ^
b1 (
b1 B"
0]
0'
b0 \
b0 +
b0 T"
b0 g
b0 N
b0 p
b1 d
b1111111111111111 +"
b1111111111111111 D
b1111111111111111 2"
b0 _
bx 9"
bx 8"
1!
1W
#42000
0!
0W
#43000
xH
zW"
zV
b0 V"
b0 %
b0 o
b0 X"
b0 r
b0 P
b0 s
0M
b1010 N"
b1010 )
b1010 S"
0`
0A
0h
0O
0j
0S
b0 i
b0 R
b0 C"
bx \
bx +
bx T"
bx g
bx N
bx p
b101 d
b111001001 ;"
b111001001 8
b111001001 :"
b111001001 E"
b1100111001001 w
b1100111001001 7
b1100111001001 |
b1010 Y"
b1010 &
b1010 n
b1010 '"
b1010 1"
b1 #"
b1 2
b1 0"
b0 ""
b1100 1
b1100 x
b1100 /"
b0 -
b0 y
b1 }
b1001 .
b1001 z
b1001 ,"
b1 ,
b1 {
b1000111001001 $"
b1000111001001 B
b1010 t
b1010 Q
b1010 u
b1010 M"
b1 _
bx 9"
bx 8"
1!
1W
#44000
0!
0W
#45000
1H
b1111111110010010 O"
b1111111110010010 *
b1111111110010010 U"
b0 N"
b0 )
b0 S"
b1111111111001001 R"
0W"
0V
b1111111110010010 V"
b1111111110010010 %
b1111111110010010 o
b1111111110010010 X"
0l
0U
1j
1S
b10 i
b10 R
b10 C"
b11 ^
b11 (
b11 B"
1]
1'
1m
1Y
b0 \
b0 +
b0 T"
b100011 d
b0 Y"
b0 &
b0 n
b0 '"
b0 1"
b101 _
bx 9"
bx 8"
1!
1W
#46000
0!
0W
#47000
xH
x#
bx )"
bx C
bx *"
b0 O"
b0 *
b0 U"
b0 R"
zW"
zV
b0 V"
b0 %
b0 o
b0 X"
xM
xI
x$
1a
1E
xf
xL
xe
xK
xl
xU
xj
xS
bx i
bx R
bx C"
bx ^
bx (
bx B"
x]
x'
xm
xY
bx \
bx +
bx T"
b111111 d
b1111111110010010 Y"
b1111111110010010 &
b1111111110010010 n
b1111111110010010 '"
b1111111110010010 1"
b100011 _
bx 9"
bx 8"
1!
1W
#48000
0!
0W
#49000
b1111111111111111 )"
b1111111111111111 C
b1111111111111111 *"
1k
1T
0a
0E
1l
1U
b0 d
bx +"
bx D
bx 2"
b0 Y"
b0 &
b0 n
b0 '"
b0 1"
b111111 _
bx 9"
bx 8"
1!
1W
#50000
0!
0W
#51000
b1100 r
b1100 P
b1100 s
b1100 V"
b1100 %
b1100 o
b1100 X"
1H
b10 O"
b10 *
b10 U"
b1010 N"
b1010 )
b1010 S"
0W"
0V
0I
1M
0$
0#
0k
0T
1`
1A
1h
1O
0f
0L
0e
0K
xl
xU
b1 ^
b1 (
b1 B"
0]
0'
b0 \
b0 +
b0 T"
b0 g
b0 N
b0 p
b1 d
b1111111111111111 +"
b1111111111111111 D
b1111111111111111 2"
b0 _
bx 9"
bx 8"
1!
1W
#52000
0!
0W
#53000
xH
zW"
zV
b0 V"
b0 %
b0 o
b0 X"
b0 r
b0 P
b0 s
0M
b1100 N"
b1100 )
b1100 S"
0`
0A
0h
0O
0j
0S
b0 i
b0 R
b0 C"
bx \
bx +
bx T"
bx g
bx N
bx p
b101 d
b1000011001001 w
b1000011001001 7
b1000011001001 |
b100111001001 ;"
b1111100111001001 8
b1111100111001001 :"
b1111100111001001 E"
b1100 t
b1100 Q
b1100 u
b1100 M"
b1001 #"
b1001 2
b1001 0"
b10 ""
b1110 1
b1110 x
b1110 /"
b10 -
b10 y
b1100111001001 $"
b1100111001001 B
b1100 Y"
b1100 &
b1100 n
b1100 '"
b1100 1"
b1 _
bx 9"
bx 8"
1!
1W
#54000
0!
0W
#55000
1H
b1111111110010010 O"
b1111111110010010 *
b1111111110010010 U"
b0 N"
b0 )
b0 S"
b1111111111001001 R"
0W"
0V
b1111111110010010 V"
b1111111110010010 %
b1111111110010010 o
b1111111110010010 X"
0l
0U
1j
1S
b10 i
b10 R
b10 C"
b11 ^
b11 (
b11 B"
1]
1'
1m
1Y
b0 \
b0 +
b0 T"
b100011 d
b0 Y"
b0 &
b0 n
b0 '"
b0 1"
b101 _
bx 9"
bx 8"
1!
1W
#56000
0!
0W
#57000
xH
x#
bx )"
bx C
bx *"
b0 O"
b0 *
b0 U"
b0 R"
zW"
zV
b0 V"
b0 %
b0 o
b0 X"
xM
xI
x$
1a
1E
xf
xL
xe
xK
xl
xU
xj
xS
bx i
bx R
bx C"
bx ^
bx (
bx B"
x]
x'
xm
xY
bx \
bx +
bx T"
b111111 d
b1111111110010010 Y"
b1111111110010010 &
b1111111110010010 n
b1111111110010010 '"
b1111111110010010 1"
b100011 _
bx 9"
bx 8"
1!
1W
#58000
0!
0W
#59000
b1111111111111111 )"
b1111111111111111 C
b1111111111111111 *"
1k
1T
0a
0E
1l
1U
b0 d
b0 Y"
b0 &
b0 n
b0 '"
b0 1"
bx +"
bx D
bx 2"
b111111 _
bx 9"
bx 8"
1!
1W
#60000
0!
0W
#61000
b1110 r
b1110 P
b1110 s
b1110 V"
b1110 %
b1110 o
b1110 X"
1H
b10 O"
b10 *
b10 U"
b1100 N"
b1100 )
b1100 S"
0W"
0V
0I
1M
0$
0#
0k
0T
1`
1A
1h
1O
0f
0L
0e
0K
xl
xU
b1 ^
b1 (
b1 B"
0]
0'
b0 \
b0 +
b0 T"
b0 g
b0 N
b0 p
b1 d
b1111111111111111 +"
b1111111111111111 D
b1111111111111111 2"
b0 _
bx 9"
bx 8"
1!
1W
#62000
0!
0W
#63000
xH
zW"
zV
b0 V"
b0 %
b0 o
b0 X"
b0 r
b0 P
b0 s
0M
b1110 N"
b1110 )
b1110 S"
0`
0A
0h
0O
0j
0S
b0 i
b0 R
b0 C"
bx \
bx +
bx T"
bx g
bx N
bx p
b101 d
b11001001 ;"
b11001001 8
b11001001 :"
b11001001 E"
b1100011001001 w
b1100011001001 7
b1100011001001 |
b1110 Y"
b1110 &
b1110 n
b1110 '"
b1110 1"
b0 #"
b0 2
b0 0"
b0 ""
b1100 1
b1100 x
b1100 /"
b0 -
b0 y
b0 }
b1000 .
b1000 z
b1000 ,"
b0 ,
b0 {
b1000011001001 $"
b1000011001001 B
b1110 t
b1110 Q
b1110 u
b1110 M"
b1 _
bx 9"
bx 8"
1!
1W
#64000
0!
0W
#65000
1H
b1111111110010010 O"
b1111111110010010 *
b1111111110010010 U"
b0 N"
b0 )
b0 S"
b1111111111001001 R"
0W"
0V
b1111111110010010 V"
b1111111110010010 %
b1111111110010010 o
b1111111110010010 X"
0l
0U
1j
1S
b10 i
b10 R
b10 C"
b11 ^
b11 (
b11 B"
1]
1'
1m
1Y
b0 \
b0 +
b0 T"
b100011 d
b0 Y"
b0 &
b0 n
b0 '"
b0 1"
b101 _
bx 9"
bx 8"
1!
1W
#66000
0!
0W
#67000
xH
x#
bx )"
bx C
bx *"
b0 O"
b0 *
b0 U"
b0 R"
zW"
zV
b0 V"
b0 %
b0 o
b0 X"
xM
xI
x$
1a
1E
xf
xL
xe
xK
xl
xU
xj
xS
bx i
bx R
bx C"
bx ^
bx (
bx B"
x]
x'
xm
xY
bx \
bx +
bx T"
b111111 d
b1111111110010010 Y"
b1111111110010010 &
b1111111110010010 n
b1111111110010010 '"
b1111111110010010 1"
b100011 _
bx 9"
bx 8"
1!
1W
#68000
0!
0W
#69000
b1111111111111111 )"
b1111111111111111 C
b1111111111111111 *"
1k
1T
0a
0E
1l
1U
b0 d
bx +"
bx D
bx 2"
b0 Y"
b0 &
b0 n
b0 '"
b0 1"
b111111 _
bx 9"
bx 8"
1!
1W
#70000
0!
0W
#71000
b10000 r
b10000 P
b10000 s
b10000 V"
b10000 %
b10000 o
b10000 X"
1H
b10 O"
b10 *
b10 U"
b1110 N"
b1110 )
b1110 S"
0W"
0V
0I
1M
0$
0#
0k
0T
1`
1A
1h
1O
0f
0L
0e
0K
xl
xU
b1 ^
b1 (
b1 B"
0]
0'
b0 \
b0 +
b0 T"
b0 g
b0 N
b0 p
b1 d
b1111111111111111 +"
b1111111111111111 D
b1111111111111111 2"
b0 _
bx 9"
bx 8"
1!
1W
#72000
0!
0W
#73000
xH
zW"
zV
b0 V"
b0 %
b0 o
b0 X"
b0 r
b0 P
b0 s
0M
b10000 N"
b10000 )
b10000 S"
0`
0A
0h
0O
0j
0S
b0 i
b0 R
b0 C"
bx \
bx +
bx T"
bx g
bx N
bx p
b101 d
b1000000101001000 w
b1000000101001000 7
b1000000101001000 |
b100011001001 ;"
b1111100011001001 8
b1111100011001001 :"
b1111100011001001 E"
b10000 t
b10000 Q
b10000 u
b10000 M"
b1000 #"
b1000 2
b1000 0"
b10 ""
b1110 1
b1110 x
b1110 /"
b10 -
b10 y
b1100011001001 $"
b1100011001001 B
b10000 Y"
b10000 &
b10000 n
b10000 '"
b10000 1"
b1 _
bx 9"
bx 8"
1!
1W
