TOP.vcd
$date
	Fri Apr 06 23:30:22 2018
$end
$version
	Icarus Verilog
$end
$timescale
	10ps
$end
$scope module tb_TOP $end
$var reg 1 ! clk $end
$var reg 1 " rst $end
$scope module uut $end
$var wire 1 # A1_Out $end
$var wire 1 $ A2_Out $end
$var wire 1 % NZERO $end
$var wire 1 & O1_Out $end
$var wire 1 ' PCEnableWrite $end
$var wire 1 ! clk $end
$var wire 1 " rst $end
$var wire 1 ( sign_extend $end
$var wire 1 ) ZERO_OUT $end
$var wire 1 * RegWrite $end
$var wire 1 + RegDstWrite $end
$var wire 1 , ReadR2 $end
$var wire 2 - ReadR1 [1:0] $end
$var wire 16 . PC_OUT [15:0] $end
$var wire 16 / PC_IN [15:0] $end
$var wire 1 0 PCWrite $end
$var wire 2 1 PCSrc [1:0] $end
$var wire 1 2 PCBNqCond $end
$var wire 1 3 PCBEqCond $end
$var wire 4 4 OPCODE [3:0] $end
$var wire 1 5 MemWrite $end
$var wire 1 6 MemToReg $end
$var wire 1 7 MemRead $end
$var wire 16 8 MDR_OUT [15:0] $end
$var wire 16 9 MDR_IN [15:0] $end
$var wire 16 : IR_InstructionOut [15:0] $end
$var wire 1 ; IRWrite $end
$var wire 4 < FUNCFIELD [3:0] $end
$var wire 16 = D_USE_Out [15:0] $end
$var wire 16 > D_SE_Out [15:0] $end
$var wire 16 ? D_RegSW [15:0] $end
$var wire 16 @ D_ReadReg2RT [15:0] $end
$var wire 16 A D_ReadReg1RT [15:0] $end
$var wire 16 B D_Offset [15:0] $end
$var wire 16 C D_L1S_Out [15:0] $end
$var wire 16 D D_JUMP_SE_Out [15:0] $end
$var wire 16 E D_Instruction [15:0] $end
$var wire 16 F D_BT [15:0] $end
$var wire 4 G A_WriteRegRT_BT [3:0] $end
$var wire 4 H A_RegSWLW [3:0] $end
$var wire 4 I A_ReadReg2RT [3:0] $end
$var wire 4 J A_ReadReg1RT [3:0] $end
$var wire 4 K A_Offset [3:0] $end
$var wire 2 L A_2bit_RegSWLW [1:0] $end
$var wire 2 M A_2bit_Offset [1:0] $end
$var wire 3 N ALU_OP [2:0] $end
$var wire 16 O ALU_2_IN [15:0] $end
$var wire 16 P ALU_1_IN [15:0] $end
$var wire 3 Q ALUSrcB [2:0] $end
$var wire 1 R ALUSrcA $end
$var wire 16 S ALUOUT_OUT [15:0] $end
$var wire 16 T ALUOUT_IN [15:0] $end
$scope module ALU_MAIN $end
$var wire 16 U b [15:0] $end
$var wire 3 V alu_op [2:0] $end
$var wire 16 W a [15:0] $end
$var reg 16 X out [15:0] $end
$var reg 1 ) z $end
$upscope $end
$scope module AO $end
$var wire 16 Y ALUOUT_IN [15:0] $end
$var wire 1 ! clk $end
$var reg 16 Z ALUOUT_OUT [15:0] $end
$upscope $end
$scope module DM $end
$var wire 16 [ A_DataAddress [15:0] $end
$var wire 1 " rst $end
$var wire 16 \ D_WriteData [15:0] $end
$var wire 1 5 C_DMWrite $end
$var wire 1 7 C_DMRead $end
$var reg 16 ] D_Data [15:0] $end
$upscope $end
$scope module FSM_Main $end
$var wire 1 ! clk $end
$var wire 1 " rst $end
$var wire 4 ^ opcode [3:0] $end
$var wire 4 _ func_field [3:0] $end
$var reg 3 ` ALUOp [2:0] $end
$var reg 1 R ALUSrcA $end
$var reg 3 a ALUSrcB [2:0] $end
$var reg 6 b CurrentState [5:0] $end
$var reg 1 ; IRWrite $end
$var reg 1 7 MemRead $end
$var reg 1 6 MemToReg $end
$var reg 1 5 MemWrite $end
$var reg 6 c NextState [5:0] $end
$var reg 1 3 PCBEqCond $end
$var reg 1 2 PCBNqCond $end
$var reg 2 d PCSrc [1:0] $end
$var reg 1 0 PCWrite $end
$var reg 2 e ReadR1 [1:0] $end
$var reg 1 , ReadR2 $end
$var reg 1 * RegWrite $end
$var reg 1 + RegWriteDst $end
$var reg 1 ( sign_extend $end
$upscope $end
$scope module IM $end
$var wire 1 f C_IMRead $end
$var wire 1 " rst $end
$var wire 16 g A_InstrAddress [15:0] $end
$var reg 16 h D_Instruction [15:0] $end
$upscope $end
$scope module IR $end
$var wire 1 ; C_IRWrite $end
$var wire 16 i D_MemData [15:0] $end
$var wire 1 ! clk $end
$var wire 1 " rst $end
$var reg 2 j A_Offset [1:0] $end
$var reg 4 k A_ReadReg1RT [3:0] $end
$var reg 4 l A_ReadReg2RT [3:0] $end
$var reg 2 m A_RegSWLW [1:0] $end
$var reg 4 n A_WriteRegRT_BT [3:0] $end
$var reg 16 o D_Instr [15:0] $end
$var reg 4 p FUNCFIELD [3:0] $end
$var reg 4 q OPCODE [3:0] $end
$upscope $end
$scope module MDR $end
$var wire 16 r MDR_IN [15:0] $end
$var wire 1 ! clk $end
$var reg 16 s MDR_OUT [15:0] $end
$upscope $end
$scope module MPA $end
$var wire 1 R C_ALUSrc_A $end
$var wire 3 t C_ALUSrc_B [2:0] $end
$var wire 2 u C_RegDstRead1R [1:0] $end
$var wire 1 , C_RegDstRead2R $end
$var wire 1 ( C_SignExtend $end
$var wire 16 v PC [15:0] $end
$var wire 16 w D_USE_Out [15:0] $end
$var wire 16 x D_SE_Out [15:0] $end
$var wire 16 y D_RegSW [15:0] $end
$var wire 16 z D_ReadReg2RT [15:0] $end
$var wire 16 { D_ReadReg1RT [15:0] $end
$var wire 16 | D_Offset [15:0] $end
$var wire 16 } D_L1S_Out [15:0] $end
$var wire 16 ~ D_JUMP_SE_Out [15:0] $end
$var wire 16 !" D_BT [15:0] $end
$var reg 16 "" ALU_1_IN [15:0] $end
$var reg 16 #" ALU_2_IN [15:0] $end
$var reg 16 $" M1_Out [15:0] $end
$var reg 16 %" M2_Out [15:0] $end
$var reg 16 &" M3_Out [15:0] $end
$upscope $end
$scope module MPC $end
$var wire 16 '" ALUOut_result [15:0] $end
$var wire 16 (" ALU_result [15:0] $end
$var wire 2 )" C_PCSource [1:0] $end
$var wire 16 *" RF_result [15:0] $end
$var reg 16 +" PC_IN [15:0] $end
$upscope $end
$scope module ProgCount $end
$var wire 1 ' C_PCWrite $end
$var wire 16 ," PC_IN [15:0] $end
$var wire 1 ! clk $end
$var wire 1 " rst $end
$var reg 16 -" PC_OUT [15:0] $end
$upscope $end
$scope module RF $end
$var wire 4 ." A_ReadReg1RT [3:0] $end
$var wire 4 /" A_ReadReg2RT [3:0] $end
$var wire 4 0" A_WriteRegRT_BT [3:0] $end
$var wire 1 6 C_MemToReg $end
$var wire 1 + C_RegDstWrite $end
$var wire 1 * C_RegWrite $end
$var wire 16 1" D_ALU_IN [15:0] $end
$var wire 16 2" D_MDR_IN [15:0] $end
$var wire 1 ! clk $end
$var wire 1 " rst $end
$var wire 4 3" A_RegSWLW [3:0] $end
$var wire 4 4" A_Offset [3:0] $end
$var reg 16 5" D_BT [15:0] $end
$var reg 16 6" D_Offset [15:0] $end
$var reg 16 7" D_ReadReg1RT [15:0] $end
$var reg 16 8" D_ReadReg2RT [15:0] $end
$var reg 16 9" D_RegSW [15:0] $end
$var reg 4 :" a_write [3:0] $end
$var reg 16 ;" d_write [15:0] $end
$upscope $end
$scope module c10 $end
$var wire 2 <" instr10to11 [1:0] $end
$var wire 4 =" c10out [3:0] $end
$upscope $end
$scope module c11 $end
$var wire 2 >" instr9to8 [1:0] $end
$var wire 4 ?" c11out [3:0] $end
$upscope $end
$scope module l1bs $end
$var wire 16 @" SE_Out [15:0] $end
$var wire 16 A" L1S_Out [15:0] $end
$upscope $end
$scope module se12t16b $end
$var wire 12 B" instr11to0 [11:0] $end
$var wire 16 C" JUMP_SE_Out [15:0] $end
$upscope $end
$scope module se8t16b $end
$var wire 8 D" instr7to0 [7:0] $end
$var wire 16 E" SE_Out [15:0] $end
$upscope $end
$scope module use8t16b $end
$var wire 8 F" instr7to0 [7:0] $end
$var wire 16 G" USE_Out [15:0] $end
$upscope $end
$upscope $end
$upscope $end
$enddefinitions $end
#0
$dumpvars
b0xxxxxxxx G"
bx F"
bx E"
bx D"
bx C"
bx B"
bx0 A"
bx @"
b11xx ?"
bx >"
b10xx ="
bx <"
bx ;"
bx :"
bx 9"
bx 8"
bx 7"
bx 6"
bx 5"
b10xx 4"
b11xx 3"
bx 2"
bx 1"
bx 0"
bx /"
bx ."
bx -"
b0 ,"
b0 +"
bx *"
bx )"
b0 ("
bx '"
b0 &"
b1 %"
b1 $"
b1 #"
b1 ""
bx !"
bx ~
bx0 }
bx |
bx {
bx z
bx y
bx x
b0xxxxxxxx w
bx v
bx u
bx t
bx s
bx r
bx q
bx p
bx o
bx n
bx m
bx l
bx k
bx j
bx i
bx h
bx g
1f
bx e
bx d
bx c
bx b
bx a
bx `
bx _
bx ^
bx ]
bx \
bx [
bx Z
b0 Y
b0 X
b1 W
bx V
b1 U
b0 T
bx S
xR
bx Q
b1 P
b1 O
bx N
bx M
bx L
b10xx K
bx J
bx I
b11xx H
bx G
bx F
bx E
bx D
bx0 C
bx B
bx A
bx @
bx ?
bx >
b0xxxxxxxx =
bx <
x;
bx :
bx 9
bx 8
x7
x6
x5
bx 4
x3
x2
bx 1
x0
b0 /
bx .
bx -
x,
x+
x*
z)
x(
x'
x&
x%
x$
x#
0"
0!
$end
#500
bx /
bx +"
bx ,"
x%
bx P
bx W
bx ""
x)
bx T
bx X
bx Y
bx ("
0&
1'
0$
0#
0*
1;
07
05
10
02
03
b1 Q
b1 a
b1 t
0R
b0 N
b0 V
b0 `
b0 1
b0 d
b0 )"
b1 c
b0 b
b0 9
b0 ]
b0 r
b0 E
b0 h
b0 i
bx :"
1"
#1000
1%
0)
b1 /
b1 +"
b1 ,"
b1 T
b1 X
b1 Y
b1 ("
b0 P
b0 W
b0 ""
b0 .
b0 g
b0 v
b0 -"
b0 G
b0 n
b0 0"
b1100 H
b1100 3"
b1100 ?"
b0 L
b0 m
b0 >"
b1000 K
b1000 4"
b1000 ="
b0 M
b0 j
b0 <"
b0 I
b0 l
b0 /"
b0 J
b0 k
b0 ."
b0 <
b0 _
b0 p
b0 4
b0 ^
b0 q
b0 8
b0 s
b0 2"
bx :"
1!
#2000
b0 F
b0 !"
b0 *"
b0 5"
b101 ?
b101 \
b101 y
b101 9"
b1000100010001000 B
b1000100010001000 |
b1000100010001000 6"
b0 @
b0 z
b0 8"
b0 A
b0 {
b0 7"
b1000000100110010 E
b1000000100110010 h
b1000000100110010 i
bx :"
0!
0"
#3000
x%
b0 %"
b0 $"
z)
b0 T
b0 X
b0 Y
b0 ("
b0 /
b0 +"
b0 ,"
0'
b1 P
b1 W
b1 ""
0;
00
0,
b0 -
b0 e
b0 u
bx N
bx V
bx `
bx 1
bx d
bx )"
b10 c
b1100100 C
b1100100 }
b1100100 A"
b110010 =
b110010 w
b110010 G"
b110010 F"
b110010 >
b110010 x
b110010 @"
b110010 E"
b110010 D"
b100110010 D
b100110010 ~
b100110010 C"
b100110010 B"
b1000000100010011 E
b1000000100010011 h
b1000000100010011 i
b1 S
b1 Z
b1 [
b1 '"
b1 1"
b1 G
b1 n
b1 0"
b1001 K
b1001 4"
b1001 ="
b1 M
b1 j
b1 <"
b10 I
b10 l
b10 /"
b11 J
b11 k
b11 ."
b10 <
b10 _
b10 p
b1000 4
b1000 ^
b1000 q
b1000000100110010 :
b1000000100110010 o
b1 .
b1 g
b1 v
b1 -"
b1 b
bx :"
1!
#4000
0!
#5000
1%
0)
b101010101010101 T
b101010101010101 X
b101010101010101 Y
b101010101010101 ("
b10001000100010 O
b10001000100010 U
b10001000100010 #"
b11001100110011 P
b11001100110011 W
b11001100110011 ""
1+
b0 Q
b0 a
b0 t
1R
b0 N
b0 V
b0 `
b101000 c
b10001000100010 %"
b11001100110011 $"
b0 S
b0 Z
b0 [
b0 '"
b0 1"
b10 b
b1000100010001 F
b1000100010001 !"
b1000100010001 *"
b1000100010001 5"
b1001100110011001 B
b1001100110011001 |
b1001100110011001 6"
b10001000100010 @
b10001000100010 z
b10001000100010 8"
b11001100110011 A
b11001100110011 {
b11001100110011 7"
bx ;"
bx :"
1!
#6000
0!
#7000
x%
x#
b1 O
b1 U
b1 #"
b1 P
b1 W
b1 ""
b1 %"
b1 $"
z)
b0 T
b0 X
b0 Y
b0 ("
x'
x&
x$
1*
x2
x3
06
x,
bx -
bx e
bx u
bx Q
bx a
bx t
xR
bx N
bx V
bx `
b0 c
b101010101010101 S
b101010101010101 Z
b101010101010101 [
b101010101010101 '"
b101010101010101 1"
b101000 b
bx ;"
bx :"
1!
#8000
0!
#9000
b10 /
b10 +"
b10 ,"
1%
0)
b10 T
b10 X
b10 Y
b10 ("
0&
1'
0$
0#
0*
1;
10
02
03
x6
x+
b1 Q
b1 a
b1 t
0R
b0 N
b0 V
b0 `
b0 1
b0 d
b0 )"
b1 c
b0 S
b0 Z
b0 [
b0 '"
b0 1"
b0 b
b101010101010101 F
b101010101010101 !"
b101010101010101 *"
b101010101010101 5"
b101010101010101 ;"
b1 :"
1!
#10000
0!
#11000
x%
b10001000100010 %"
b11001100110011 $"
z)
b0 T
b0 X
b0 Y
b0 ("
b0 /
b0 +"
b0 ,"
0'
b10 P
b10 W
b10 ""
0;
00
0,
b0 -
b0 e
b0 u
bx N
bx V
bx `
bx 1
bx d
bx )"
b10 c
b100110 C
b100110 }
b100110 A"
b10011 =
b10011 w
b10011 G"
b10011 F"
b10011 >
b10011 x
b10011 @"
b10011 E"
b10011 D"
b100010011 D
b100010011 ~
b100010011 C"
b100010011 B"
b1001000000000001 E
b1001000000000001 h
b1001000000000001 i
b10 S
b10 Z
b10 [
b10 '"
b10 1"
b11 I
b11 l
b11 /"
b1 J
b1 k
b1 ."
b11 <
b11 _
b11 p
b1000000100010011 :
b1000000100010011 o
b10 .
b10 g
b10 v
b10 -"
b1 b
bx ;"
bx :"
1!
#12000
0!
#13000
1%
0)
b1000100010001000 T
b1000100010001000 X
b1000100010001000 Y
b1000100010001000 ("
b11001100110011 O
b11001100110011 U
b11001100110011 #"
b101010101010101 P
b101010101010101 W
b101010101010101 ""
1+
b0 Q
b0 a
b0 t
1R
b0 N
b0 V
b0 `
b101000 c
b11001100110011 %"
b101010101010101 $"
b0 S
b0 Z
b0 [
b0 '"
b0 1"
b10 b
b11001100110011 @
b11001100110011 z
b11001100110011 8"
b101010101010101 A
b101010101010101 {
b101010101010101 7"
bx ;"
bx :"
1!
#14000
0!
#15000
x%
x#
b1 O
b1 U
b1 #"
b1 P
b1 W
b1 ""
b1 %"
b1 $"
z)
b0 T
b0 X
b0 Y
b0 ("
x'
x&
x$
1*
x2
x3
06
x,
bx -
bx e
bx u
bx Q
bx a
bx t
xR
bx N
bx V
bx `
b0 c
b1000100010001000 S
b1000100010001000 Z
b1000100010001000 [
b1000100010001000 '"
b1000100010001000 1"
b101000 b
bx ;"
bx :"
1!
#16000
0!
#17000
b11 /
b11 +"
b11 ,"
1%
b10 P
b10 W
b10 ""
0)
b11 T
b11 X
b11 Y
b11 ("
0&
1'
0$
0#
0*
1;
10
02
03
x6
x+
b1 Q
b1 a
b1 t
0R
b0 N
b0 V
b0 `
b0 1
b0 d
b0 )"
b1 c
b0 S
b0 Z
b0 [
b0 '"
b0 1"
b0 b
b1000100010001000 F
b1000100010001000 !"
b1000100010001000 *"
b1000100010001000 5"
b1000100010001000 A
b1000100010001000 {
b1000100010001000 7"
b1000100010001000 ;"
b1 :"
1!
#18000
0!
#19000
x%
b11001100110011 %"
b1000100010001000 $"
z)
b0 T
b0 X
b0 Y
b0 ("
b0 /
b0 +"
b0 ,"
0'
b11 P
b11 W
b11 ""
0;
00
0,
b0 -
b0 e
b0 u
bx N
bx V
bx `
bx 1
bx d
bx )"
b11 c
b10 C
b10 }
b10 A"
b1 =
b1 w
b1 G"
b1 F"
b1 >
b1 x
b1 @"
b1 E"
b1 D"
b1 D
b1 ~
b1 C"
b1 B"
b1010000000000001 E
b1010000000000001 h
b1010000000000001 i
b11 S
b11 Z
b11 [
b11 '"
b11 1"
b0 G
b0 n
b0 0"
b1000 K
b1000 4"
b1000 ="
b0 M
b0 j
b0 <"
b1 I
b1 l
b1 /"
b0 J
b0 k
b0 ."
b1 <
b1 _
b1 p
b1001 4
b1001 ^
b1001 q
b1001000000000001 :
b1001000000000001 o
b11 .
b11 g
b11 v
b11 -"
b1 b
bx ;"
bx :"
1!
#20000
0!
#21000
1%
0)
b1 T
b1 X
b1 Y
b1 ("
b1 O
b1 U
b1 #"
b0 P
b0 W
b0 ""
b1 &"
1+
b1 -
b1 e
b1 u
b10 Q
b10 a
b10 t
1R
1(
b0 N
b0 V
b0 `
b101000 c
b1000100010001000 %"
b0 $"
b0 S
b0 Z
b0 [
b0 '"
b0 1"
b11 b
b0 F
b0 !"
b0 *"
b0 5"
b1000100010001000 B
b1000100010001000 |
b1000100010001000 6"
b1000100010001000 @
b1000100010001000 z
b1000100010001000 8"
b0 A
b0 {
b0 7"
bx ;"
bx :"
1!
#22000
0!
#23000
x%
x#
b1 P
b1 W
b1 ""
b0 &"
b1 %"
b1 $"
z)
b0 T
b0 X
b0 Y
b0 ("
x'
x&
x$
1*
x2
x3
06
x,
bx -
bx e
bx u
bx Q
bx a
bx t
xR
x(
bx N
bx V
bx `
b0 c
b1 S
b1 Z
b1 [
b1 '"
b1 1"
b101000 b
bx ;"
bx :"
1!
#24000
0!
#25000
b100 /
b100 +"
b100 ,"
1%
b11 P
b11 W
b11 ""
0)
b100 T
b100 X
b100 Y
b100 ("
0&
1'
0$
0#
0*
1;
10
02
03
x6
x+
b1 Q
b1 a
b1 t
0R
b0 N
b0 V
b0 `
b0 1
b0 d
b0 )"
b1 c
b0 S
b0 Z
b0 [
b0 '"
b0 1"
b0 b
b1 F
b1 !"
b1 *"
b1 5"
b1 A
b1 {
b1 7"
b1 ;"
b0 :"
1!
#26000
0!
#27000
x%
b1000100010001000 %"
z)
b0 T
b0 X
b0 Y
b0 ("
b0 /
b0 +"
b0 ,"
0'
b100 P
b100 W
b100 ""
0;
00
0,
b0 -
b0 e
b0 u
bx N
bx V
bx `
bx 1
bx d
bx )"
b100 c
b1000000101001000 E
b1000000101001000 h
b1000000101001000 i
b100 S
b100 Z
b100 [
b100 '"
b100 1"
b1010 4
b1010 ^
b1010 q
b1010000000000001 :
b1010000000000001 o
b100 .
b100 g
b100 v
b100 -"
b1 b
bx ;"
bx :"
1!
#28000
0!
#29000
1%
b1 O
b1 U
b1 #"
b1 P
b1 W
b1 ""
b1 &"
0)
b10 T
b10 X
b10 Y
b10 ("
1+
b1 -
b1 e
b1 u
b10 Q
b10 a
b10 t
1R
0(
b0 N
b0 V
b0 `
b101000 c
b0 S
b0 Z
b0 [
b0 '"
b0 1"
b100 b
bx ;"
bx :"
1!
#30000
0!
#31000
x%
x#
b0 &"
b1 %"
z)
b0 T
b0 X
b0 Y
b0 ("
x'
x&
x$
1*
x2
x3
06
x,
bx -
bx e
bx u
bx Q
bx a
bx t
xR
x(
bx N
bx V
bx `
b0 c
b10 S
b10 Z
b10 [
b10 '"
b10 1"
b101000 b
bx ;"
bx :"
1!
#32000
0!
#33000
b101 /
b101 +"
b101 ,"
1%
b100 P
b100 W
b100 ""
0)
b101 T
b101 X
b101 Y
b101 ("
0&
1'
0$
0#
0*
1;
10
02
03
x6
x+
b1 Q
b1 a
b1 t
0R
b0 N
b0 V
b0 `
b0 1
b0 d
b0 )"
b1 c
b0 S
b0 Z
b0 [
b0 '"
b0 1"
b0 b
b10 F
b10 !"
b10 *"
b10 5"
b10 A
b10 {
b10 7"
b10 ;"
b0 :"
1!
#34000
0!
#35000
x%
b1000100010001000 %"
b10 $"
z)
b0 T
b0 X
b0 Y
b0 ("
b0 /
b0 +"
b0 ,"
0'
b101 P
b101 W
b101 ""
0;
00
0,
b0 -
b0 e
b0 u
bx N
bx V
bx `
bx 1
bx d
bx )"
b10 c
b10010000 C
b10010000 }
b10010000 A"
b1001000 =
b1001000 w
b1001000 G"
b1001000 F"
b1001000 >
b1001000 x
b1001000 @"
b1001000 E"
b1001000 D"
b101001000 D
b101001000 ~
b101001000 C"
b101001000 B"
b1010101111001001 E
b1010101111001001 h
b1010101111001001 i
b101 S
b101 Z
b101 [
b101 '"
b101 1"
b1 G
b1 n
b1 0"
b1001 K
b1001 4"
b1001 ="
b1 M
b1 j
b1 <"
b1000 I
b1000 l
b1000 /"
b100 J
b100 k
b100 ."
b1000 <
b1000 _
b1000 p
b1000 4
b1000 ^
b1000 q
b1000000101001000 :
b1000000101001000 o
b101 .
b101 g
b101 v
b101 -"
b1 b
bx ;"
bx :"
1!
#36000
0!
#37000
1%
0)
b1100110011001100 T
b1100110011001100 X
b1100110011001100 Y
b1100110011001100 ("
b1000100010001000 O
b1000100010001000 U
b1000100010001000 #"
b100010001000100 P
b100010001000100 W
b100010001000100 ""
1+
b0 Q
b0 a
b0 t
1R
b0 N
b0 V
b0 `
b101000 c
b100010001000100 $"
b0 S
b0 Z
b0 [
b0 '"
b0 1"
b10 b
b1000100010001000 F
b1000100010001000 !"
b1000100010001000 *"
b1000100010001000 5"
b1001100110011001 B
b1001100110011001 |
b1001100110011001 6"
b100010001000100 A
b100010001000100 {
b100010001000100 7"
bx ;"
bx :"
1!
#38000
0!
#39000
x%
x#
b1 O
b1 U
b1 #"
b1 P
b1 W
b1 ""
b1 %"
b1 $"
z)
b0 T
b0 X
b0 Y
b0 ("
x'
x&
x$
1*
x2
x3
06
x,
bx -
bx e
bx u
bx Q
bx a
bx t
xR
bx N
bx V
bx `
b0 c
b1100110011001100 S
b1100110011001100 Z
b1100110011001100 [
b1100110011001100 '"
b1100110011001100 1"
b101000 b
bx ;"
bx :"
1!
#40000
0!
#41000
b110 /
b110 +"
b110 ,"
1%
b101 P
b101 W
b101 ""
0)
b110 T
b110 X
b110 Y
b110 ("
0&
1'
0$
0#
0*
1;
10
02
03
x6
x+
b1 Q
b1 a
b1 t
0R
b0 N
b0 V
b0 `
b0 1
b0 d
b0 )"
b1 c
b0 S
b0 Z
b0 [
b0 '"
b0 1"
b0 b
b1100110011001100 F
b1100110011001100 !"
b1100110011001100 *"
b1100110011001100 5"
b1100110011001100 ;"
b1 :"
1!
#42000
0!
#43000
x%
b1000100010001000 %"
b100010001000100 $"
z)
b0 T
b0 X
b0 Y
b0 ("
b0 /
b0 +"
b0 ,"
0'
b110 P
b110 W
b110 ""
0;
00
0,
b0 -
b0 e
b0 u
bx N
bx V
bx `
bx 1
bx d
bx )"
b100 c
b1111111110010010 C
b1111111110010010 }
b1111111110010010 A"
b11001001 =
b11001001 w
b11001001 G"
b11001001 F"
b1111111111001001 >
b1111111111001001 x
b1111111111001001 @"
b1111111111001001 E"
b11001001 D"
b1111101111001001 D
b1111101111001001 ~
b1111101111001001 C"
b101111001001 B"
b1001101100001001 E
b1001101100001001 h
b1001101100001001 i
b110 S
b110 Z
b110 [
b110 '"
b110 1"
b1011 G
b1011 n
b1011 0"
b1110 H
b1110 3"
b1110 ?"
b10 L
b10 m
b10 >"
b1011 K
b1011 4"
b1011 ="
b11 M
b11 j
b11 <"
b1001 I
b1001 l
b1001 /"
b1100 J
b1100 k
b1100 ."
b1001 <
b1001 _
b1001 p
b1010 4
b1010 ^
b1010 q
b1010101111001001 :
b1010101111001001 o
b110 .
b110 g
b110 v
b110 -"
b1 b
bx ;"
bx :"
1!
#44000
0!
#45000
1%
0)
b11001100 T
b11001100 X
b11001100 Y
b11001100 ("
b11001001 O
b11001001 U
b11001001 #"
b11 P
b11 W
b11 ""
b11001001 &"
1+
b1 -
b1 e
b1 u
b10 Q
b10 a
b10 t
1R
0(
b0 N
b0 V
b0 `
b101000 c
b1001100110011001 %"
b11 $"
b0 S
b0 Z
b0 [
b0 '"
b0 1"
b100 b
b11 F
b11 !"
b11 *"
b11 5"
b1110111011101110 ?
b1110111011101110 \
b1110111011101110 y
b1110111011101110 9"
b11 B
b11 |
b11 6"
b1001100110011001 @
b1001100110011001 z
b1001100110011001 8"
b101 A
b101 {
b101 7"
bx ;"
bx :"
1!
#46000
0!
#47000
x%
x#
b1 O
b1 U
b1 #"
b1 P
b1 W
b1 ""
b0 &"
b1 %"
b1 $"
z)
b0 T
b0 X
b0 Y
b0 ("
x'
x&
x$
1*
x2
x3
06
x,
bx -
bx e
bx u
bx Q
bx a
bx t
xR
x(
bx N
bx V
bx `
b0 c
b11001100 S
b11001100 Z
b11001100 [
b11001100 '"
b11001100 1"
b101000 b
bx ;"
bx :"
1!
#48000
0!
#49000
b111 /
b111 +"
b111 ,"
1%
b110 P
b110 W
b110 ""
0)
b111 T
b111 X
b111 Y
b111 ("
0&
1'
0$
0#
0*
1;
10
02
03
x6
x+
b1 Q
b1 a
b1 t
0R
b0 N
b0 V
b0 `
b0 1
b0 d
b0 )"
b1 c
b0 S
b0 Z
b0 [
b0 '"
b0 1"
b0 b
b11001100 F
b11001100 !"
b11001100 *"
b11001100 5"
b11001100 B
b11001100 |
b11001100 6"
b11001100 ;"
b1011 :"
1!
#50000
0!
#51000
x%
b1001100110011001 %"
b101 $"
z)
b0 T
b0 X
b0 Y
b0 ("
b0 /
b0 +"
b0 ,"
0'
b111 P
b111 W
b111 ""
0;
00
0,
b0 -
b0 e
b0 u
bx N
bx V
bx `
bx 1
bx d
bx )"
b11 c
b10010 C
b10010 }
b10010 A"
b1001 =
b1001 w
b1001 G"
b1001 F"
b1001 >
b1001 x
b1001 @"
b1001 E"
b1001 D"
b1111101100001001 D
b1111101100001001 ~
b1111101100001001 C"
b101100001001 B"
b1100101101001000 E
b1100101101001000 h
b1100101101001000 i
b111 S
b111 Z
b111 [
b111 '"
b111 1"
b0 J
b0 k
b0 ."
b1001 4
b1001 ^
b1001 q
b1001101100001001 :
b1001101100001001 o
b111 .
b111 g
b111 v
b111 -"
b1 b
bx ;"
bx :"
1!
#52000
0!
#53000
1%
0)
b11010101 T
b11010101 X
b11010101 Y
b11010101 ("
b1001 O
b1001 U
b1001 #"
b11001100 P
b11001100 W
b11001100 ""
b1001 &"
1+
b1 -
b1 e
b1 u
b10 Q
b10 a
b10 t
1R
1(
b0 N
b0 V
b0 `
b101000 c
b11001100 $"
b0 S
b0 Z
b0 [
b0 '"
b0 1"
b11 b
b10 A
b10 {
b10 7"
bx ;"
bx :"
1!
#54000
0!
#55000
x%
x#
b1 O
b1 U
b1 #"
b1 P
b1 W
b1 ""
b0 &"
b1 %"
b1 $"
z)
b0 T
b0 X
b0 Y
b0 ("
x'
x&
x$
1*
x2
x3
06
x,
bx -
bx e
bx u
bx Q
bx a
bx t
xR
x(
bx N
bx V
bx `
b0 c
b11010101 S
b11010101 Z
b11010101 [
b11010101 '"
b11010101 1"
b101000 b
bx ;"
bx :"
1!
#56000
0!
#57000
b1000 /
b1000 +"
b1000 ,"
1%
b111 P
b111 W
b111 ""
0)
b1000 T
b1000 X
b1000 Y
b1000 ("
0&
1'
0$
0#
0*
1;
10
02
03
x6
x+
b1 Q
b1 a
b1 t
0R
b0 N
b0 V
b0 `
b0 1
b0 d
b0 )"
b1 c
b0 S
b0 Z
b0 [
b0 '"
b0 1"
b0 b
b11010101 F
b11010101 !"
b11010101 *"
b11010101 5"
b11010101 B
b11010101 |
b11010101 6"
b11010101 ;"
b1011 :"
1!
#58000
0!
#59000
x%
b1001100110011001 %"
b10 $"
z)
b0 T
b0 X
b0 Y
b0 ("
b0 /
b0 +"
b0 ,"
0'
b1000 P
b1000 W
b1000 ""
0;
00
0,
b0 -
b0 e
b0 u
bx N
bx V
bx `
bx 1
bx d
bx )"
b10000 c
b10010000 C
b10010000 }
b10010000 A"
b1001000 =
b1001000 w
b1001000 G"
b1001000 F"
b1001000 >
b1001000 x
b1001000 @"
b1001000 E"
b1001000 D"
b1111101101001000 D
b1111101101001000 ~
b1111101101001000 C"
b101101001000 B"
b1101101111001001 E
b1101101111001001 h
b1101101111001001 i
b1000 S
b1000 Z
b1000 [
b1000 '"
b1000 1"
b1000 I
b1000 l
b1000 /"
b100 J
b100 k
b100 ."
b1000 <
b1000 _
b1000 p
b1100 4
b1100 ^
b1100 q
b1100101101001000 :
b1100101101001000 o
b1000 .
b1000 g
b1000 v
b1000 -"
b1 b
bx ;"
bx :"
1!
#60000
0!
#61000
1%
0)
b1011101110111100 T
b1011101110111100 X
b1011101110111100 Y
b1011101110111100 ("
b1000100010001000 O
b1000100010001000 U
b1000100010001000 #"
b100010001000100 P
b100010001000100 W
b100010001000100 ""
1+
b0 Q
b0 a
b0 t
1R
b1 N
b1 V
b1 `
b101000 c
b1000100010001000 %"
b100010001000100 $"
b0 S
b0 Z
b0 [
b0 '"
b0 1"
b10000 b
b1000100010001000 @
b1000100010001000 z
b1000100010001000 8"
b100010001000100 A
b100010001000100 {
b100010001000100 7"
bx ;"
bx :"
1!
#62000
0!
#63000
x%
x#
b1 O
b1 U
b1 #"
b1 P
b1 W
b1 ""
b1 %"
b1 $"
z)
b0 T
b0 X
b0 Y
b0 ("
x'
x&
x$
1*
x2
x3
06
x,
bx -
bx e
bx u
bx Q
bx a
bx t
xR
bx N
bx V
bx `
b0 c
b1011101110111100 S
b1011101110111100 Z
b1011101110111100 [
b1011101110111100 '"
b1011101110111100 1"
b101000 b
bx ;"
bx :"
1!
#64000
0!
#65000
b1001 /
b1001 +"
b1001 ,"
1%
b1000 P
b1000 W
b1000 ""
0)
b1001 T
b1001 X
b1001 Y
b1001 ("
0&
1'
0$
0#
0*
1;
10
02
03
x6
x+
b1 Q
b1 a
b1 t
0R
b0 N
b0 V
b0 `
b0 1
b0 d
b0 )"
b1 c
b0 S
b0 Z
b0 [
b0 '"
b0 1"
b0 b
b1011101110111100 F
b1011101110111100 !"
b1011101110111100 *"
b1011101110111100 5"
b1011101110111100 B
b1011101110111100 |
b1011101110111100 6"
b1011101110111100 ;"
b1011 :"
1!
#66000
0!
