TOP.vcd
$date
	Sat Apr 07 15:56:16 2018
$end
$version
	Icarus Verilog
$end
$timescale
	10ps
$end
$scope module tb_TOP $end
$var reg 1 ! clk $end
$var reg 1 " rst $end
$scope module uut $end
$var wire 1 # A1_Out $end
$var wire 1 $ A2_Out $end
$var wire 1 % NZERO $end
$var wire 1 & O1_Out $end
$var wire 1 ' PCEnableWrite $end
$var wire 1 ! clk $end
$var wire 1 " rst $end
$var wire 1 ( sign_extend $end
$var wire 1 ) ZERO_OUT $end
$var wire 1 * RegWrite $end
$var wire 1 + RegDstWrite $end
$var wire 1 , ReadR2 $end
$var wire 2 - ReadR1 [1:0] $end
$var wire 16 . PC_OUT [15:0] $end
$var wire 16 / PC_IN [15:0] $end
$var wire 1 0 PCWrite $end
$var wire 2 1 PCSrc [1:0] $end
$var wire 1 2 PCBNqCond $end
$var wire 1 3 PCBEqCond $end
$var wire 4 4 OPCODE [3:0] $end
$var wire 1 5 MemWrite $end
$var wire 1 6 MemToReg $end
$var wire 1 7 MemRead $end
$var wire 16 8 MDR_OUT [15:0] $end
$var wire 16 9 MDR_IN [15:0] $end
$var wire 16 : IR_InstructionOut [15:0] $end
$var wire 1 ; IRWrite $end
$var wire 4 < FUNCFIELD [3:0] $end
$var wire 16 = D_USE_Out [15:0] $end
$var wire 16 > D_SE_Out [15:0] $end
$var wire 16 ? D_RegSW [15:0] $end
$var wire 16 @ D_ReadReg2RT [15:0] $end
$var wire 16 A D_ReadReg1RT [15:0] $end
$var wire 16 B D_Offset [15:0] $end
$var wire 16 C D_L1S_Out [15:0] $end
$var wire 16 D D_JUMP_SE_Out [15:0] $end
$var wire 16 E D_Instruction [15:0] $end
$var wire 16 F D_BT [15:0] $end
$var wire 4 G A_WriteRegRT_BT [3:0] $end
$var wire 4 H A_RegSWLW [3:0] $end
$var wire 4 I A_ReadReg2RT [3:0] $end
$var wire 4 J A_ReadReg1RT [3:0] $end
$var wire 4 K A_Offset [3:0] $end
$var wire 2 L A_2bit_RegSWLW [1:0] $end
$var wire 2 M A_2bit_Offset [1:0] $end
$var wire 3 N ALU_OP [2:0] $end
$var wire 16 O ALU_2_IN [15:0] $end
$var wire 16 P ALU_1_IN [15:0] $end
$var wire 3 Q ALUSrcB [2:0] $end
$var wire 1 R ALUSrcA $end
$var wire 16 S ALUOUT_OUT [15:0] $end
$var wire 16 T ALUOUT_IN [15:0] $end
$scope module ALU_MAIN $end
$var wire 16 U b [15:0] $end
$var wire 3 V alu_op [2:0] $end
$var wire 16 W a [15:0] $end
$var reg 16 X out [15:0] $end
$var reg 1 ) z $end
$upscope $end
$scope module AO $end
$var wire 16 Y ALUOUT_IN [15:0] $end
$var wire 1 ! clk $end
$var reg 16 Z ALUOUT_OUT [15:0] $end
$upscope $end
$scope module DM $end
$var wire 16 [ A_DataAddress [15:0] $end
$var wire 1 " rst $end
$var wire 16 \ D_WriteData [15:0] $end
$var wire 1 5 C_DMWrite $end
$var wire 1 7 C_DMRead $end
$var reg 16 ] D_Data [15:0] $end
$upscope $end
$scope module FSM_Main $end
$var wire 1 ! clk $end
$var wire 1 " rst $end
$var wire 4 ^ opcode [3:0] $end
$var wire 4 _ func_field [3:0] $end
$var reg 3 ` ALUOp [2:0] $end
$var reg 1 R ALUSrcA $end
$var reg 3 a ALUSrcB [2:0] $end
$var reg 6 b CurrentState [5:0] $end
$var reg 1 ; IRWrite $end
$var reg 1 7 MemRead $end
$var reg 1 6 MemToReg $end
$var reg 1 5 MemWrite $end
$var reg 6 c NextState [5:0] $end
$var reg 1 3 PCBEqCond $end
$var reg 1 2 PCBNqCond $end
$var reg 2 d PCSrc [1:0] $end
$var reg 1 0 PCWrite $end
$var reg 2 e ReadR1 [1:0] $end
$var reg 1 , ReadR2 $end
$var reg 1 * RegWrite $end
$var reg 1 + RegWriteDst $end
$var reg 1 ( sign_extend $end
$upscope $end
$scope module IM $end
$var wire 1 f C_IMRead $end
$var wire 1 " rst $end
$var wire 16 g A_InstrAddress [15:0] $end
$var reg 16 h D_Instruction [15:0] $end
$upscope $end
$scope module IR $end
$var wire 1 ; C_IRWrite $end
$var wire 16 i D_MemData [15:0] $end
$var wire 1 ! clk $end
$var wire 1 " rst $end
$var reg 2 j A_Offset [1:0] $end
$var reg 4 k A_ReadReg1RT [3:0] $end
$var reg 4 l A_ReadReg2RT [3:0] $end
$var reg 2 m A_RegSWLW [1:0] $end
$var reg 4 n A_WriteRegRT_BT [3:0] $end
$var reg 16 o D_Instr [15:0] $end
$var reg 4 p FUNCFIELD [3:0] $end
$var reg 4 q OPCODE [3:0] $end
$upscope $end
$scope module MDR $end
$var wire 16 r MDR_IN [15:0] $end
$var wire 1 ! clk $end
$var reg 16 s MDR_OUT [15:0] $end
$upscope $end
$scope module MPA $end
$var wire 1 R C_ALUSrc_A $end
$var wire 3 t C_ALUSrc_B [2:0] $end
$var wire 2 u C_RegDstRead1R [1:0] $end
$var wire 1 , C_RegDstRead2R $end
$var wire 1 ( C_SignExtend $end
$var wire 16 v PC [15:0] $end
$var wire 16 w D_USE_Out [15:0] $end
$var wire 16 x D_SE_Out [15:0] $end
$var wire 16 y D_RegSW [15:0] $end
$var wire 16 z D_ReadReg2RT [15:0] $end
$var wire 16 { D_ReadReg1RT [15:0] $end
$var wire 16 | D_Offset [15:0] $end
$var wire 16 } D_L1S_Out [15:0] $end
$var wire 16 ~ D_JUMP_SE_Out [15:0] $end
$var wire 16 !" D_BT [15:0] $end
$var reg 16 "" ALU_1_IN [15:0] $end
$var reg 16 #" ALU_2_IN [15:0] $end
$var reg 16 $" M1_Out [15:0] $end
$var reg 16 %" M2_Out [15:0] $end
$var reg 16 &" M3_Out [15:0] $end
$upscope $end
$scope module MPC $end
$var wire 16 '" ALUOut_result [15:0] $end
$var wire 16 (" ALU_result [15:0] $end
$var wire 2 )" C_PCSource [1:0] $end
$var wire 16 *" RF_result [15:0] $end
$var reg 16 +" PC_IN [15:0] $end
$upscope $end
$scope module ProgCount $end
$var wire 1 ' C_PCWrite $end
$var wire 16 ," PC_IN [15:0] $end
$var wire 1 ! clk $end
$var wire 1 " rst $end
$var reg 16 -" PC_OUT [15:0] $end
$upscope $end
$scope module RF $end
$var wire 4 ." A_ReadReg1RT [3:0] $end
$var wire 4 /" A_ReadReg2RT [3:0] $end
$var wire 4 0" A_WriteRegRT_BT [3:0] $end
$var wire 1 6 C_MemToReg $end
$var wire 1 + C_RegDstWrite $end
$var wire 1 * C_RegWrite $end
$var wire 16 1" D_ALU_IN [15:0] $end
$var wire 16 2" D_MDR_IN [15:0] $end
$var wire 1 ! clk $end
$var wire 1 " rst $end
$var wire 4 3" A_RegSWLW [3:0] $end
$var wire 4 4" A_Offset [3:0] $end
$var reg 16 5" D_BT [15:0] $end
$var reg 16 6" D_Offset [15:0] $end
$var reg 16 7" D_ReadReg1RT [15:0] $end
$var reg 16 8" D_ReadReg2RT [15:0] $end
$var reg 16 9" D_RegSW [15:0] $end
$var reg 4 :" a_write [3:0] $end
$var reg 16 ;" d_write [15:0] $end
$upscope $end
$scope module c10 $end
$var wire 2 <" instr10to11 [1:0] $end
$var wire 4 =" c10out [3:0] $end
$upscope $end
$scope module c11 $end
$var wire 2 >" instr9to8 [1:0] $end
$var wire 4 ?" c11out [3:0] $end
$upscope $end
$scope module l1bs $end
$var wire 16 @" SE_Out [15:0] $end
$var wire 16 A" L1S_Out [15:0] $end
$upscope $end
$scope module se12t16b $end
$var wire 12 B" instr11to0 [11:0] $end
$var wire 16 C" JUMP_SE_Out [15:0] $end
$upscope $end
$scope module se8t16b $end
$var wire 8 D" instr7to0 [7:0] $end
$var wire 16 E" SE_Out [15:0] $end
$upscope $end
$scope module use8t16b $end
$var wire 8 F" instr7to0 [7:0] $end
$var wire 16 G" USE_Out [15:0] $end
$upscope $end
$upscope $end
$upscope $end
$enddefinitions $end
#0
$dumpvars
b0xxxxxxxx G"
bx F"
bx E"
bx D"
bx C"
bx B"
bx0 A"
bx @"
b11xx ?"
bx >"
b10xx ="
bx <"
bx ;"
b11xx :"
bx 9"
bx 8"
bx 7"
bx 6"
bx 5"
b10xx 4"
b11xx 3"
bx 2"
bx 1"
bx 0"
bx /"
bx ."
bx -"
b0 ,"
b0 +"
bx *"
bx )"
b0 ("
bx '"
b0 &"
b1 %"
b1 $"
b1 #"
b1 ""
bx !"
bx ~
bx0 }
bx |
bx {
bx z
bx y
bx x
b0xxxxxxxx w
bx v
bx u
bx t
bx s
bx r
bx q
bx p
bx o
bx n
bx m
bx l
bx k
bx j
bx i
bx h
bx g
1f
bx e
bx d
bx c
bx b
bx a
bx `
bx _
bx ^
bx ]
bx \
bx [
bx Z
b0 Y
b0 X
b1 W
bx V
b1 U
b0 T
bx S
xR
bx Q
b1 P
b1 O
bx N
bx M
bx L
b10xx K
bx J
bx I
b11xx H
bx G
bx F
bx E
bx D
bx0 C
bx B
bx A
bx @
bx ?
bx >
b0xxxxxxxx =
bx <
x;
bx :
bx 9
bx 8
x7
x6
x5
bx 4
x3
x2
bx 1
x0
b0 /
bx .
bx -
x,
x+
x*
z)
x(
x'
x&
x%
x$
x#
0"
0!
$end
#500
bx /
bx +"
bx ,"
x%
bx P
bx W
bx ""
x)
bx T
bx X
bx Y
bx ("
0&
1'
0$
0#
0*
1;
07
05
10
02
03
b1 Q
b1 a
b1 t
0R
b0 N
b0 V
b0 `
b0 1
b0 d
b0 )"
b1 c
b0 b
b0 9
b0 ]
b0 r
b0 E
b0 h
b0 i
1"
#1000
1%
0)
b1 /
b1 +"
b1 ,"
b1 T
b1 X
b1 Y
b1 ("
b0 P
b0 W
b0 ""
b0 .
b0 g
b0 v
b0 -"
b0 G
b0 n
b0 0"
b1100 H
b1100 3"
b1100 ?"
b0 L
b0 m
b0 >"
b1000 K
b1000 4"
b1000 ="
b0 M
b0 j
b0 <"
b0 I
b0 l
b0 /"
b0 J
b0 k
b0 ."
b0 <
b0 _
b0 p
b0 4
b0 ^
b0 q
b0 8
b0 s
b0 2"
1!
#2000
b0 F
b0 !"
b0 *"
b0 5"
b101 ?
b101 \
b101 y
b101 9"
b1000100010001000 B
b1000100010001000 |
b1000100010001000 6"
b0 @
b0 z
b0 8"
b0 A
b0 {
b0 7"
b1101111001001 E
b1101111001001 h
b1101111001001 i
b1100 :"
0!
0"
#3000
x%
b0 %"
b0 $"
z)
b0 T
b0 X
b0 Y
b0 ("
b0 /
b0 +"
b0 ,"
0'
b1 P
b1 W
b1 ""
0;
00
0,
b0 -
b0 e
b0 u
bx N
bx V
bx `
bx 1
bx d
bx )"
b101 c
b1111111110010010 C
b1111111110010010 }
b1111111110010010 A"
b11001001 =
b11001001 w
b11001001 G"
b11001001 F"
b1111111111001001 >
b1111111111001001 x
b1111111111001001 @"
b1111111111001001 E"
b11001001 D"
b1111101111001001 D
b1111101111001001 ~
b1111101111001001 C"
b101111001001 B"
b10011111110100 E
b10011111110100 h
b10011111110100 i
b1 S
b1 Z
b1 [
b1 '"
b1 1"
b1011 G
b1011 n
b1011 0"
b1110 H
b1110 3"
b1110 ?"
b10 L
b10 m
b10 >"
b1011 K
b1011 4"
b1011 ="
b11 M
b11 j
b11 <"
b1001 I
b1001 l
b1001 /"
b1100 J
b1100 k
b1100 ."
b1001 <
b1001 _
b1001 p
b1 4
b1 ^
b1 q
b1101111001001 :
b1101111001001 o
b1 .
b1 g
b1 v
b1 -"
b1 b
1!
#4000
0!
#5000
1%
0)
b1111111110010101 T
b1111111110010101 X
b1111111110010101 Y
b1111111110010101 ("
b1111111110010010 O
b1111111110010010 U
b1111111110010010 #"
b11 P
b11 W
b11 ""
b1111111111001001 &"
0+
1,
b10 -
b10 e
b10 u
b11 Q
b11 a
b11 t
1R
1(
b0 N
b0 V
b0 `
b100011 c
b1110111011101110 %"
b11 $"
b0 S
b0 Z
b0 [
b0 '"
b0 1"
b101 b
b11 F
b11 !"
b11 *"
b11 5"
b1110111011101110 ?
b1110111011101110 \
b1110111011101110 y
b1110111011101110 9"
b11 B
b11 |
b11 6"
b1001100110011001 @
b1001100110011001 z
b1001100110011001 8"
b101 A
b101 {
b101 7"
b1 ;"
b1110 :"
1!
#6000
0!
#7000
x%
x#
bx 9
bx ]
bx r
b1 O
b1 U
b1 #"
b1 P
b1 W
b1 ""
b0 &"
b1 %"
b1 $"
z)
b0 T
b0 X
b0 Y
b0 ("
x'
x&
x$
17
x2
x3
x,
bx -
bx e
bx u
bx Q
bx a
bx t
xR
x(
bx N
bx V
bx `
b111111 c
b1111111110010101 S
b1111111110010101 Z
b1111111110010101 [
b1111111110010101 '"
b1111111110010101 1"
b100011 b
b0 ;"
1!
#8000
0!
#9000
b0 9
b0 ]
b0 r
1*
07
16
1+
b0 c
bx 8
bx s
bx 2"
b0 S
b0 Z
b0 [
b0 '"
b0 1"
b111111 b
b1111111110010101 ;"
1!
#10000
0!
#11000
b10 /
b10 +"
b10 ,"
1%
0)
b10 T
b10 X
b10 Y
b10 ("
0&
1'
0$
0#
0*
1;
10
02
03
x6
x+
b1 Q
b1 a
b1 t
0R
b0 N
b0 V
b0 `
b0 1
b0 d
b0 )"
b1 c
b0 8
b0 s
b0 2"
b0 b
bx ;"
b1011 :"
1!
#12000
0!
#13000
x%
b1001100110011001 %"
b101 $"
b0 /
b0 +"
b0 ,"
z)
b0 T
b0 X
b0 Y
b0 ("
0'
0;
00
0,
b0 -
b0 e
b0 u
bx N
bx V
bx `
bx 1
bx d
bx )"
b101 c
b10 P
b10 W
b10 ""
b1111111111101000 C
b1111111111101000 }
b1111111111101000 A"
b100000100100011 E
b100000100100011 h
b100000100100011 i
b11110100 =
b11110100 w
b11110100 G"
b11110100 F"
b1111111111110100 >
b1111111111110100 x
b1111111111110100 @"
b1111111111110100 E"
b11110100 D"
b11111110100 D
b11111110100 ~
b11111110100 C"
b11111110100 B"
b10 .
b10 g
b10 v
b10 -"
b111 G
b111 n
b111 0"
b1101 H
b1101 3"
b1101 ?"
b1 L
b1 m
b1 >"
b100 I
b100 l
b100 /"
b1111 J
b1111 k
b1111 ."
b100 <
b100 _
b100 p
b10 4
b10 ^
b10 q
b10011111110100 :
b10011111110100 o
b10 S
b10 Z
b10 [
b10 '"
b10 1"
b1 b
bx F
bx !"
bx *"
bx 5"
bx B
bx |
bx 6"
b0 ;"
b1110 :"
1!
#14000
0!
#15000
x%
x)
bx T
bx X
bx Y
bx ("
b1111111111101000 O
b1111111111101000 U
b1111111111101000 #"
bx P
bx W
bx ""
b1111111111110100 &"
0+
1,
b10 -
b10 e
b10 u
b11 Q
b11 a
b11 t
1R
1(
b0 N
b0 V
b0 `
b10110 c
b1101110111011101 %"
bx $"
b0 S
b0 Z
b0 [
b0 '"
b0 1"
b101 b
b111011101110111 F
b111011101110111 !"
b111011101110111 *"
b111011101110111 5"
b1101110111011101 ?
b1101110111011101 \
b1101110111011101 y
b1101110111011101 9"
b100010001000100 @
b100010001000100 z
b100010001000100 8"
b1111111111111111 A
b1111111111111111 {
b1111111111111111 7"
b10 ;"
b1101 :"
1!
#16000
0!
#17000
b1 O
b1 U
b1 #"
b1 P
b1 W
b1 ""
b0 &"
b1 $"
z)
b0 T
b0 X
b0 Y
b0 ("
x'
x&
x$
x#
15
x2
x3
x+
bx -
bx e
bx u
bx Q
bx a
bx t
xR
x(
bx N
bx V
bx `
b0 c
bx S
bx Z
bx [
bx '"
bx 1"
b10110 b
b0 ;"
1!
#18000
0!
#19000
b11 /
b11 +"
b11 ,"
1%
b10 P
b10 W
b10 ""
b1 %"
0)
b11 T
b11 X
b11 Y
b11 ("
0&
1'
0$
0#
1;
05
10
02
03
x,
b1 Q
b1 a
b1 t
0R
b0 N
b0 V
b0 `
b0 1
b0 d
b0 )"
b1 c
b0 S
b0 Z
b0 [
b0 '"
b0 1"
b0 b
bx ;"
1!
#20000
0!
#21000
x%
b100010001000100 %"
b1111111111111111 $"
z)
b0 T
b0 X
b0 Y
b0 ("
b0 /
b0 +"
b0 ,"
0'
b11 P
b11 W
b11 ""
0;
00
0,
b0 -
b0 e
b0 u
bx N
bx V
bx `
bx 1
bx d
bx )"
b110 c
b1000110 C
b1000110 }
b1000110 A"
b100100001 E
b100100001 h
b100100001 i
b100011 =
b100011 w
b100011 G"
b100011 F"
b100011 >
b100011 x
b100011 @"
b100011 E"
b100011 D"
b100100011 D
b100100011 ~
b100100011 C"
b100100011 B"
b11 .
b11 g
b11 v
b11 -"
b1 G
b1 n
b1 0"
b1100 H
b1100 3"
b1100 ?"
b0 L
b0 m
b0 >"
b1001 K
b1001 4"
b1001 ="
b1 M
b1 j
b1 <"
b11 I
b11 l
b11 /"
b10 J
b10 k
b10 ."
b11 <
b11 _
b11 p
b100 4
b100 ^
b100 q
b100000100100011 :
b100000100100011 o
b11 S
b11 Z
b11 [
b11 '"
b11 1"
b1 b
b0 ;"
1!
#22000
0!
#23000
0%
1)
b0 T
b0 X
b0 Y
b0 ("
b10000 /
b10000 +"
b10000 ,"
b11 O
b11 U
b11 #"
1'
1&
1#
13
1+
b0 Q
b0 a
b0 t
1R
b1 N
b1 V
b1 `
b10 1
b10 d
b10 )"
b0 c
b11 %"
b11 $"
b0 S
b0 Z
b0 [
b0 '"
b0 1"
b110 b
b10000 F
b10000 !"
b10000 *"
b10000 5"
b101 ?
b101 \
b101 y
b101 9"
b1001100110011001 B
b1001100110011001 |
b1001100110011001 6"
b11 @
b11 z
b11 8"
b11 A
b11 {
b11 7"
b11 ;"
b1100 :"
1!
#24000
0!
#25000
1%
0)
b1 O
b1 U
b1 #"
b10000 P
b10000 W
b10000 ""
b1 %"
b1 $"
b10001 T
b10001 X
b10001 Y
b10001 ("
b10001 /
b10001 +"
b10001 ,"
0&
0#
1;
10
03
x+
x,
bx -
bx e
bx u
b1 Q
b1 a
b1 t
0R
b0 N
b0 V
b0 `
b0 1
b0 d
b0 )"
b1 c
b101101000001 E
b101101000001 h
b101101000001 i
b10000 .
b10000 g
b10000 v
b10000 -"
b0 b
b0 ;"
b1 :"
1!
#26000
0!
#27000
x%
b11 %"
b11 $"
z)
b0 T
b0 X
b0 Y
b0 ("
b0 /
b0 +"
b0 ,"
0'
b10001 P
b10001 W
b10001 ""
0;
00
0,
b0 -
b0 e
b0 u
bx N
bx V
bx `
bx 1
bx d
bx )"
b100100 c
b10000010 C
b10000010 }
b10000010 A"
b1000001 =
b1000001 w
b1000001 G"
b1000001 F"
b1000001 >
b1000001 x
b1000001 @"
b1000001 E"
b1000001 D"
b1111101101000001 D
b1111101101000001 ~
b1111101101000001 C"
b101101000001 B"
b101101000010 E
b101101000010 h
b101101000010 i
b10001 S
b10001 Z
b10001 [
b10001 '"
b10001 1"
b1011 G
b1011 n
b1011 0"
b1110 H
b1110 3"
b1110 ?"
b10 L
b10 m
b10 >"
b1011 K
b1011 4"
b1011 ="
b11 M
b11 j
b11 <"
b1 I
b1 l
b1 /"
b100 J
b100 k
b100 ."
b1 <
b1 _
b1 p
b0 4
b0 ^
b0 q
b101101000001 :
b101101000001 o
b10001 .
b10001 g
b10001 v
b10001 -"
b1 b
b1100 :"
1!
#28000
0!
#29000
x%
x)
bx0000 T
bx0000 X
bx0000 Y
bx0000 ("
b100 O
b100 U
b100 #"
bx P
bx W
bx ""
b1000001 &"
1+
x,
b1 -
b1 e
b1 u
b101 Q
b101 a
b101 t
1R
0(
b11 N
b11 V
b11 `
b101000 c
b1 %"
bx $"
b0 S
b0 Z
b0 [
b0 '"
b0 1"
b100100 b
bx F
bx !"
bx *"
bx 5"
b1110111011101110 ?
b1110111011101110 \
b1110111011101110 y
b1110111011101110 9"
bx B
bx |
bx 6"
b10000 @
b10000 z
b10000 8"
b100010001000100 A
b100010001000100 {
b100010001000100 7"
b10001 ;"
b1110 :"
1!
#30000
0!
#31000
b1 O
b1 U
b1 #"
b1 P
b1 W
b1 ""
b0 &"
b1 $"
z)
b0 T
b0 X
b0 Y
b0 ("
x'
x&
x$
x#
1*
x2
x3
06
bx -
bx e
bx u
bx Q
bx a
bx t
xR
x(
bx N
bx V
bx `
b0 c
bx0000 S
bx0000 Z
bx0000 [
bx0000 '"
bx0000 1"
b101000 b
b0 ;"
b1011 :"
1!
#32000
0!
#33000
b10010 /
b10010 +"
b10010 ,"
1%
b10001 P
b10001 W
b10001 ""
0)
b10010 T
b10010 X
b10010 Y
b10010 ("
0&
1'
0$
0#
0*
1;
10
02
03
x6
x+
b1 Q
b1 a
b1 t
0R
b0 N
b0 V
b0 `
b0 1
b0 d
b0 )"
b1 c
b0 S
b0 Z
b0 [
b0 '"
b0 1"
b0 b
bx0000 F
bx0000 !"
bx0000 *"
bx0000 5"
bx0000 B
bx0000 |
bx0000 6"
bx0000 ;"
1!
#34000
0!
#35000
x%
b10000 %"
b100010001000100 $"
z)
b0 T
b0 X
b0 Y
b0 ("
b0 /
b0 +"
b0 ,"
0'
b10010 P
b10010 W
b10010 ""
0;
00
0,
b0 -
b0 e
b0 u
bx N
bx V
bx `
bx 1
bx d
bx )"
b100101 c
b10000100 C
b10000100 }
b10000100 A"
b1000010 =
b1000010 w
b1000010 G"
b1000010 F"
b1000010 >
b1000010 x
b1000010 @"
b1000010 E"
b1000010 D"
b1111101101000010 D
b1111101101000010 ~
b1111101101000010 C"
b101101000010 B"
b101101000011 E
b101101000011 h
b101101000011 i
b10010 S
b10010 Z
b10010 [
b10010 '"
b10010 1"
b10 I
b10 l
b10 /"
b10 <
b10 _
b10 p
b101101000010 :
b101101000010 o
b10010 .
b10010 g
b10010 v
b10010 -"
b1 b
b0 ;"
b1110 :"
1!
#36000
0!
#37000
x%
x)
b0xxxxxxxxxxxx T
b0xxxxxxxxxxxx X
b0xxxxxxxxxxxx Y
b0xxxxxxxxxxxx ("
b100 O
b100 U
b100 #"
bx0000 P
bx0000 W
bx0000 ""
b1000010 &"
bx0000 $"
1+
x,
b1 -
b1 e
b1 u
b101 Q
b101 a
b101 t
1R
0(
b10 N
b10 V
b10 `
b101000 c
b1 %"
b0 S
b0 Z
b0 [
b0 '"
b0 1"
b100101 b
b11 @
b11 z
b11 8"
b10010 ;"
1!
#38000
0!
#39000
b1 O
b1 U
b1 #"
b1 P
b1 W
b1 ""
b0 &"
b1 $"
z)
b0 T
b0 X
b0 Y
b0 ("
x'
x&
x$
x#
1*
x2
x3
06
bx -
bx e
bx u
bx Q
bx a
bx t
xR
x(
bx N
bx V
bx `
b0 c
b0xxxxxxxxxxxx S
b0xxxxxxxxxxxx Z
b0xxxxxxxxxxxx [
b0xxxxxxxxxxxx '"
b0xxxxxxxxxxxx 1"
b101000 b
b0 ;"
b1011 :"
1!
#40000
0!
#41000
b10011 /
b10011 +"
b10011 ,"
1%
b10010 P
b10010 W
b10010 ""
0)
b10011 T
b10011 X
b10011 Y
b10011 ("
0&
1'
0$
0#
0*
1;
10
02
03
x6
x+
b1 Q
b1 a
b1 t
0R
b0 N
b0 V
b0 `
b0 1
b0 d
b0 )"
b1 c
b0 S
b0 Z
b0 [
b0 '"
b0 1"
b0 b
b0xxxxxxxxxxxx F
b0xxxxxxxxxxxx !"
b0xxxxxxxxxxxx *"
b0xxxxxxxxxxxx 5"
b0xxxxxxxxxxxx B
b0xxxxxxxxxxxx |
b0xxxxxxxxxxxx 6"
b0xxxxxxxxxxxx ;"
1!
#42000
0!
#43000
x%
b11 %"
b100010001000100 $"
z)
b0 T
b0 X
b0 Y
b0 ("
b0 /
b0 +"
b0 ,"
0'
b10011 P
b10011 W
b10011 ""
0;
00
0,
b0 -
b0 e
b0 u
bx N
bx V
bx `
bx 1
bx d
bx )"
b100110 c
b10000110 C
b10000110 }
b10000110 A"
b1000011 =
b1000011 w
b1000011 G"
b1000011 F"
b1000011 >
b1000011 x
b1000011 @"
b1000011 E"
b1000011 D"
b1111101101000011 D
b1111101101000011 ~
b1111101101000011 C"
b101101000011 B"
b1011101101001000 E
b1011101101001000 h
b1011101101001000 i
b10011 S
b10011 Z
b10011 [
b10011 '"
b10011 1"
b11 I
b11 l
b11 /"
b11 <
b11 _
b11 p
b101101000011 :
b101101000011 o
b10011 .
b10011 g
b10011 v
b10011 -"
b1 b
b0 ;"
b1110 :"
1!
#44000
0!
#45000
x%
b100 O
b100 U
b100 #"
b0xxxxxxxxxxxx P
b0xxxxxxxxxxxx W
b0xxxxxxxxxxxx ""
b1000011 &"
b1 %"
b0xxxxxxxxxxxx $"
x)
b0xxxxxxxx T
b0xxxxxxxx X
b0xxxxxxxx Y
b0xxxxxxxx ("
1+
x,
b1 -
b1 e
b1 u
b101 Q
b101 a
b101 t
1R
0(
b111 N
b111 V
b111 `
b101000 c
b0 S
b0 Z
b0 [
b0 '"
b0 1"
b100110 b
b10011 ;"
1!
#46000
0!
#47000
b1 O
b1 U
b1 #"
b1 P
b1 W
b1 ""
b0 &"
b1 $"
z)
b0 T
b0 X
b0 Y
b0 ("
x'
x&
x$
x#
1*
x2
x3
06
bx -
bx e
bx u
bx Q
bx a
bx t
xR
x(
bx N
bx V
bx `
b0 c
b0xxxxxxxx S
b0xxxxxxxx Z
b0xxxxxxxx [
b0xxxxxxxx '"
b0xxxxxxxx 1"
b101000 b
b0 ;"
b1011 :"
1!
#48000
0!
#49000
b10100 /
b10100 +"
b10100 ,"
1%
b10011 P
b10011 W
b10011 ""
0)
b10100 T
b10100 X
b10100 Y
b10100 ("
0&
1'
0$
0#
0*
1;
10
02
03
x6
x+
b1 Q
b1 a
b1 t
0R
b0 N
b0 V
b0 `
b0 1
b0 d
b0 )"
b1 c
b0 S
b0 Z
b0 [
b0 '"
b0 1"
b0 b
b0xxxxxxxx F
b0xxxxxxxx !"
b0xxxxxxxx *"
b0xxxxxxxx 5"
b0xxxxxxxx B
b0xxxxxxxx |
b0xxxxxxxx 6"
b0xxxxxxxx ;"
1!
#50000
0!
#51000
x%
b11 %"
b100010001000100 $"
z)
b0 T
b0 X
b0 Y
b0 ("
b0 /
b0 +"
b0 ,"
0'
b10100 P
b10100 W
b10100 ""
0;
00
0,
b0 -
b0 e
b0 u
bx N
bx V
bx `
bx 1
bx d
bx )"
b1001 c
b10010000 C
b10010000 }
b10010000 A"
b1001000 =
b1001000 w
b1001000 G"
b1001000 F"
b1001000 >
b1001000 x
b1001000 @"
b1001000 E"
b1001000 D"
b1111101101001000 D
b1111101101001000 ~
b1111101101001000 C"
b101101001000 B"
b1111101101001000 E
b1111101101001000 h
b1111101101001000 i
b10100 S
b10100 Z
b10100 [
b10100 '"
b10100 1"
b1000 I
b1000 l
b1000 /"
b1000 <
b1000 _
b1000 p
b1011 4
b1011 ^
b1011 q
b1011101101001000 :
b1011101101001000 o
b10100 .
b10100 g
b10100 v
b10100 -"
b1 b
b0 ;"
b1110 :"
1!
#52000
0!
#53000
0%
1)
b0 T
b0 X
b0 Y
b0 ("
b1000100010001000 O
b1000100010001000 U
b1000100010001000 #"
b100010001000100 P
b100010001000100 W
b100010001000100 ""
1+
b0 Q
b0 a
b0 t
1R
b10 N
b10 V
b10 `
b101000 c
b1000100010001000 %"
b0 S
b0 Z
b0 [
b0 '"
b0 1"
b1001 b
b1000100010001000 @
b1000100010001000 z
b1000100010001000 8"
b10100 ;"
1!
#54000
0!
#55000
x$
x%
b1 O
b1 U
b1 #"
b1 P
b1 W
b1 ""
b1 %"
b1 $"
z)
x'
x&
x#
1*
x2
x3
06
x,
bx -
bx e
bx u
bx Q
bx a
bx t
xR
bx N
bx V
bx `
b0 c
b101000 b
b0 ;"
b1011 :"
1!
#56000
0!
#57000
b10101 /
b10101 +"
b10101 ,"
1%
b10100 P
b10100 W
b10100 ""
0)
b10101 T
b10101 X
b10101 Y
b10101 ("
0&
1'
0$
0#
0*
1;
10
02
03
x6
x+
b1 Q
b1 a
b1 t
0R
b0 N
b0 V
b0 `
b0 1
b0 d
b0 )"
b1 c
b0 b
b0 F
b0 !"
b0 *"
b0 5"
b0 B
b0 |
b0 6"
1!
#58000
0!
#59000
x%
b1000100010001000 %"
b100010001000100 $"
z)
b0 T
b0 X
b0 Y
b0 ("
b0 /
b0 +"
b0 ,"
0'
b10101 P
b10101 W
b10101 ""
0;
00
0,
b0 -
b0 e
b0 u
bx N
bx V
bx `
bx 1
bx d
bx )"
b1110 c
b111101111001001 E
b111101111001001 h
b111101111001001 i
b10101 S
b10101 Z
b10101 [
b10101 '"
b10101 1"
b1111 4
b1111 ^
b1111 q
b1111101101001000 :
b1111101101001000 o
b10101 .
b10101 g
b10101 v
b10101 -"
b1 b
b1110 :"
1!
#60000
0!
#61000
1%
b1000100010001000 O
b1000100010001000 U
b1000100010001000 #"
b100010001000100 P
b100010001000100 W
b100010001000100 ""
0)
b1100110011001100 T
b1100110011001100 X
b1100110011001100 Y
b1100110011001100 ("
1+
b0 Q
b0 a
b0 t
1R
b101 N
b101 V
b101 `
b101000 c
b0 S
b0 Z
b0 [
b0 '"
b0 1"
b1110 b
b10101 ;"
1!
#62000
0!
#63000
x%
x#
b1 O
b1 U
b1 #"
b1 P
b1 W
b1 ""
b1 %"
b1 $"
z)
b0 T
b0 X
b0 Y
b0 ("
x'
x&
x$
1*
x2
x3
06
x,
bx -
bx e
bx u
bx Q
bx a
bx t
xR
bx N
bx V
bx `
b0 c
b1100110011001100 S
b1100110011001100 Z
b1100110011001100 [
b1100110011001100 '"
b1100110011001100 1"
b101000 b
b0 ;"
b1011 :"
1!
#64000
0!
