TOP.vcd
$date
	Sat Apr  7 16:06:31 2018
$end
$version
	Icarus Verilog
$end
$timescale
	10ps
$end
$scope module tb_TOP $end
$var reg 1 ! clk $end
$var reg 1 " rst $end
$scope module uut $end
$var wire 1 # A1_Out $end
$var wire 1 $ A2_Out $end
$var wire 16 % ALUOUT_IN [15:0] $end
$var wire 16 & ALUOUT_OUT [15:0] $end
$var wire 1 ' ALUSrcA $end
$var wire 3 ( ALUSrcB [2:0] $end
$var wire 16 ) ALU_1_IN [15:0] $end
$var wire 16 * ALU_2_IN [15:0] $end
$var wire 3 + ALU_OP [2:0] $end
$var wire 2 , A_2bit_Offset [1:0] $end
$var wire 2 - A_2bit_RegSWLW [1:0] $end
$var wire 4 . A_Offset [3:0] $end
$var wire 4 / A_ReadReg1RT [3:0] $end
$var wire 4 0 A_ReadReg2RT [3:0] $end
$var wire 4 1 A_RegSWLW [3:0] $end
$var wire 4 2 A_WriteRegRT_BT [3:0] $end
$var wire 16 3 D_BT [15:0] $end
$var wire 16 4 D_Instruction [15:0] $end
$var wire 16 5 D_JUMP_SE_Out [15:0] $end
$var wire 16 6 D_L1S_Out [15:0] $end
$var wire 16 7 D_Offset [15:0] $end
$var wire 16 8 D_ReadReg1RT [15:0] $end
$var wire 16 9 D_ReadReg2RT [15:0] $end
$var wire 16 : D_RegSW [15:0] $end
$var wire 16 ; D_SE_Out [15:0] $end
$var wire 16 < D_USE_Out [15:0] $end
$var wire 4 = FUNCFIELD [3:0] $end
$var wire 1 > IRWrite $end
$var wire 16 ? IR_InstructionOut [15:0] $end
$var wire 16 @ MDR_IN [15:0] $end
$var wire 16 A MDR_OUT [15:0] $end
$var wire 1 B MemRead $end
$var wire 1 C MemToReg $end
$var wire 1 D MemWrite $end
$var wire 1 E NZERO $end
$var wire 1 F O1_Out $end
$var wire 4 G OPCODE [3:0] $end
$var wire 1 H PCBEqCond $end
$var wire 1 I PCBNqCond $end
$var wire 1 J PCEnableWrite $end
$var wire 2 K PCSrc [1:0] $end
$var wire 1 L PCWrite $end
$var wire 16 M PC_IN [15:0] $end
$var wire 16 N PC_OUT [15:0] $end
$var wire 2 O ReadR1 [1:0] $end
$var wire 1 P ReadR2 $end
$var wire 1 Q RegDstWrite $end
$var wire 1 R RegWrite $end
$var wire 1 S ZERO_OUT $end
$var wire 1 T clk $end
$var wire 1 U rst $end
$var wire 1 V sign_extend $end
$scope module FSM_Main $end
$var wire 1 T clk $end
$var wire 4 W func_field [3:0] $end
$var wire 4 X opcode [3:0] $end
$var wire 1 U rst $end
$var reg 3 Y ALUOp [2:0] $end
$var reg 1 Z ALUSrcA $end
$var reg 3 [ ALUSrcB [2:0] $end
$var reg 6 \ CurrentState [5:0] $end
$var reg 1 ] IRWrite $end
$var reg 1 ^ MemRead $end
$var reg 1 _ MemToReg $end
$var reg 1 ` MemWrite $end
$var reg 6 a NextState [5:0] $end
$var reg 1 b PCBEqCond $end
$var reg 1 c PCBNqCond $end
$var reg 2 d PCSrc [1:0] $end
$var reg 1 e PCWrite $end
$var reg 2 f ReadR1 [1:0] $end
$var reg 1 g ReadR2 $end
$var reg 1 h RegWrite $end
$var reg 1 i RegWriteDst $end
$var reg 1 j sign_extend $end
$upscope $end
$scope module MPC $end
$var wire 16 k ALUOut_result [15:0] $end
$var wire 16 l ALU_result [15:0] $end
$var wire 2 m C_PCSource [1:0] $end
$var wire 16 n RF_result [15:0] $end
$var reg 16 o PC_IN [15:0] $end
$upscope $end
$scope module ProgCount $end
$var wire 1 J C_PCWrite $end
$var wire 16 p PC_IN [15:0] $end
$var wire 1 T clk $end
$var wire 1 U rst $end
$var reg 16 q PC_OUT [15:0] $end
$upscope $end
$scope module IM $end
$var wire 16 r A_InstrAddress [15:0] $end
$var wire 1 s C_IMRead $end
$var wire 1 U rst $end
$var reg 16 t D_Instruction [15:0] $end
$upscope $end
$scope module c11 $end
$var wire 4 u c11out [3:0] $end
$var wire 2 v instr9to8 [1:0] $end
$upscope $end
$scope module c10 $end
$var wire 4 w c10out [3:0] $end
$var wire 2 x instr10to11 [1:0] $end
$upscope $end
$scope module IR $end
$var wire 1 > C_IRWrite $end
$var wire 16 y D_MemData [15:0] $end
$var wire 1 T clk $end
$var wire 1 U rst $end
$var reg 2 z A_Offset [1:0] $end
$var reg 4 { A_ReadReg1RT [3:0] $end
$var reg 4 | A_ReadReg2RT [3:0] $end
$var reg 2 } A_RegSWLW [1:0] $end
$var reg 4 ~ A_WriteRegRT_BT [3:0] $end
$var reg 16 !" D_Instr [15:0] $end
$var reg 4 "" FUNCFIELD [3:0] $end
$var reg 4 #" OPCODE [3:0] $end
$upscope $end
$scope module DM $end
$var wire 16 $" A_DataAddress [15:0] $end
$var wire 1 B C_DMRead $end
$var wire 1 D C_DMWrite $end
$var wire 16 %" D_WriteData [15:0] $end
$var wire 1 U rst $end
$var reg 16 &" D_Data [15:0] $end
$upscope $end
$scope module MDR $end
$var wire 16 '" MDR_IN [15:0] $end
$var wire 1 T clk $end
$var reg 16 (" MDR_OUT [15:0] $end
$upscope $end
$scope module RF $end
$var wire 4 )" A_Offset [3:0] $end
$var wire 4 *" A_ReadReg1RT [3:0] $end
$var wire 4 +" A_ReadReg2RT [3:0] $end
$var wire 4 ," A_RegSWLW [3:0] $end
$var wire 4 -" A_WriteRegRT_BT [3:0] $end
$var wire 1 C C_MemToReg $end
$var wire 1 Q C_RegDstWrite $end
$var wire 1 R C_RegWrite $end
$var wire 16 ." D_ALU_IN [15:0] $end
$var wire 16 /" D_MDR_IN [15:0] $end
$var wire 1 T clk $end
$var wire 1 U rst $end
$var reg 16 0" D_BT [15:0] $end
$var reg 16 1" D_Offset [15:0] $end
$var reg 16 2" D_ReadReg1RT [15:0] $end
$var reg 16 3" D_ReadReg2RT [15:0] $end
$var reg 16 4" D_RegSW [15:0] $end
$var reg 4 5" a_write [3:0] $end
$var reg 16 6" d_write [15:0] $end
$upscope $end
$scope module se12t16b $end
$var wire 16 7" JUMP_SE_Out [15:0] $end
$var wire 12 8" instr11to0 [11:0] $end
$upscope $end
$scope module se8t16b $end
$var wire 16 9" SE_Out [15:0] $end
$var wire 8 :" instr7to0 [7:0] $end
$upscope $end
$scope module use8t16b $end
$var wire 16 ;" USE_Out [15:0] $end
$var wire 8 <" instr7to0 [7:0] $end
$upscope $end
$scope module l1bs $end
$var wire 16 =" L1S_Out [15:0] $end
$var wire 16 >" SE_Out [15:0] $end
$upscope $end
$scope module MPA $end
$var wire 1 ' C_ALUSrc_A $end
$var wire 3 ?" C_ALUSrc_B [2:0] $end
$var wire 2 @" C_RegDstRead1R [1:0] $end
$var wire 1 P C_RegDstRead2R $end
$var wire 1 V C_SignExtend $end
$var wire 16 A" D_BT [15:0] $end
$var wire 16 B" D_JUMP_SE_Out [15:0] $end
$var wire 16 C" D_L1S_Out [15:0] $end
$var wire 16 D" D_Offset [15:0] $end
$var wire 16 E" D_ReadReg1RT [15:0] $end
$var wire 16 F" D_ReadReg2RT [15:0] $end
$var wire 16 G" D_RegSW [15:0] $end
$var wire 16 H" D_SE_Out [15:0] $end
$var wire 16 I" D_USE_Out [15:0] $end
$var wire 16 J" PC [15:0] $end
$var reg 16 K" ALU_1_IN [15:0] $end
$var reg 16 L" ALU_2_IN [15:0] $end
$var reg 16 M" M1_Out [15:0] $end
$var reg 16 N" M2_Out [15:0] $end
$var reg 16 O" M3_Out [15:0] $end
$upscope $end
$scope module ALU_MAIN $end
$var wire 16 P" a [15:0] $end
$var wire 3 Q" alu_op [2:0] $end
$var wire 16 R" b [15:0] $end
$var reg 16 S" out [15:0] $end
$var reg 1 T" z $end
$upscope $end
$scope module AO $end
$var wire 16 U" ALUOUT_IN [15:0] $end
$var wire 1 T clk $end
$var reg 16 V" ALUOUT_OUT [15:0] $end
$upscope $end
$upscope $end
$upscope $end
$enddefinitions $end
#0
$dumpvars
bx V"
b0 U"
zT"
b0 S"
b1 R"
bx Q"
b1 P"
b0 O"
b1 N"
b1 M"
b1 L"
b1 K"
bx J"
b0xxxxxxxx I"
bx H"
bx G"
bx F"
bx E"
bx D"
bx0 C"
bx B"
bx A"
bx @"
bx ?"
bx >"
bx0 ="
bx <"
b0xxxxxxxx ;"
bx :"
bx 9"
bx 8"
bx 7"
bx 6"
b11xx 5"
bx 4"
bx 3"
bx 2"
bx 1"
bx 0"
bx /"
bx ."
bx -"
b11xx ,"
bx +"
bx *"
b10xx )"
bx ("
bx '"
bx &"
bx %"
bx $"
bx #"
bx ""
bx !"
bx ~
bx }
bx |
bx {
bx z
bx y
bx x
b10xx w
bx v
b11xx u
bx t
1s
bx r
bx q
b0 p
b0 o
bx n
bx m
b0 l
bx k
xj
xi
xh
xg
bx f
xe
bx d
xc
xb
bx a
x`
x_
x^
x]
bx \
bx [
xZ
bx Y
bx X
bx W
xV
0U
0T
zS
xR
xQ
xP
bx O
bx N
b0 M
xL
bx K
xJ
xI
xH
bx G
xF
xE
xD
xC
xB
bx A
bx @
bx ?
x>
bx =
b0xxxxxxxx <
bx ;
bx :
bx 9
bx 8
bx 7
bx0 6
bx 5
bx 4
bx 3
bx 2
b11xx 1
bx 0
bx /
b10xx .
bx -
bx ,
bx +
b1 *
b1 )
bx (
x'
bx &
b0 %
x$
x#
0"
0!
$end
#500
bx o
bx M
bx p
xE
bx K"
bx )
bx P"
xT"
xS
bx S"
bx %
bx l
bx U"
0F
1J
0$
0#
0h
0R
1]
1>
0^
0B
0`
0D
1e
1L
0c
0I
0b
0H
b1 [
b1 (
b1 ?"
0Z
0'
b0 Y
b0 +
b0 Q"
b0 d
b0 K
b0 m
b1 a
b0 \
b0 &"
b0 @
b0 '"
b0 t
b0 4
b0 y
1"
1U
#1000
1E
0T"
0S
b1 o
b1 M
b1 p
b1 S"
b1 %
b1 l
b1 U"
b0 K"
b0 )
b0 P"
b0 q
b0 N
b0 r
b0 J"
b0 ~
b0 2
b0 -"
b0 }
b1100 1
b1100 u
b1100 ,"
b0 -
b0 v
b0 z
b1000 .
b1000 w
b1000 )"
b0 ,
b0 x
b0 |
b0 0
b0 +"
b0 {
b0 /
b0 *"
b0 ""
b0 =
b0 W
b0 #"
b0 G
b0 X
b0 ("
b0 A
b0 /"
1!
1T
#2000
b0 0"
b0 3
b0 n
b0 A"
b101 4"
b101 :
b101 %"
b101 G"
b1000100010001000 1"
b1000100010001000 7
b1000100010001000 D"
b0 3"
b0 9
b0 F"
b0 2"
b0 8
b0 E"
b1100 5"
b10011111110100 t
b10011111110100 4
b10011111110100 y
0!
0T
0"
0U
#3000
xE
b0 N"
b0 M"
zT"
zS
b0 S"
b0 %
b0 l
b0 U"
b0 o
b0 M
b0 p
0J
b1 K"
b1 )
b1 P"
0]
0>
0e
0L
0g
0P
b0 f
b0 O
b0 @"
bx Y
bx +
bx Q"
bx d
bx K
bx m
b101 a
b1111111111101000 6
b1111111111101000 ="
b1111111111101000 C"
b11110100 <"
b11110100 <
b11110100 ;"
b11110100 I"
b11110100 :"
b1111111111110100 ;
b1111111111110100 9"
b1111111111110100 >"
b1111111111110100 H"
b11111110100 8"
b11111110100 5
b11111110100 7"
b11111110100 B"
b1001111110100 t
b1001111110100 4
b1001111110100 y
b1 V"
b1 &
b1 k
b1 $"
b1 ."
b111 ~
b111 2
b111 -"
b1 }
b1101 1
b1101 u
b1101 ,"
b1 -
b1 v
b11 z
b1011 .
b1011 w
b1011 )"
b11 ,
b11 x
b100 |
b100 0
b100 +"
b1111 {
b1111 /
b1111 *"
b100 ""
b100 =
b100 W
b10 #"
b10 G
b10 X
b10011111110100 !"
b10011111110100 ?
b1 q
b1 N
b1 r
b1 J"
b1 \
1!
1T
#4000
0!
0T
#5000
1E
b1111111111101000 L"
b1111111111101000 *
b1111111111101000 R"
b11 K"
b11 )
b11 P"
b1111111111110100 O"
0T"
0S
b1111111111101011 S"
b1111111111101011 %
b1111111111101011 l
b1111111111101011 U"
b1101110111011101 N"
b11 M"
0i
0Q
1g
1P
b10 f
b10 O
b10 @"
b11 [
b11 (
b11 ?"
1Z
1'
1j
1V
b0 Y
b0 +
b0 Q"
b10110 a
b0 V"
b0 &
b0 k
b0 $"
b0 ."
b111011101110111 0"
b111011101110111 3
b111011101110111 n
b111011101110111 A"
b1101110111011101 4"
b1101110111011101 :
b1101110111011101 %"
b1101110111011101 G"
b11 1"
b11 7
b11 D"
b100010001000100 3"
b100010001000100 9
b100010001000100 F"
b1111111111111111 2"
b1111111111111111 8
b1111111111111111 E"
b101 \
b1 6"
b1101 5"
1!
1T
#6000
0!
0T
#7000
xE
x#
b1 L"
b1 *
b1 R"
b1 K"
b1 )
b1 P"
b0 O"
b1 M"
zT"
zS
b0 S"
b0 %
b0 l
b0 U"
xJ
xF
x$
1`
1D
xc
xI
xb
xH
xi
xQ
bx f
bx O
bx @"
bx [
bx (
bx ?"
xZ
x'
xj
xV
bx Y
bx +
bx Q"
b0 a
b1111111111101011 V"
b1111111111101011 &
b1111111111101011 k
b1111111111101011 $"
b1111111111101011 ."
b10110 \
b0 6"
1!
1T
#8000
0!
0T
#9000
b10 o
b10 M
b10 p
1E
b1 N"
0T"
0S
b10 S"
b10 %
b10 l
b10 U"
0F
1J
0$
0#
1]
1>
0`
0D
1e
1L
0c
0I
0b
0H
xg
xP
b1 [
b1 (
b1 ?"
0Z
0'
b0 Y
b0 +
b0 Q"
b0 d
b0 K
b0 m
b1 a
b0 V"
b0 &
b0 k
b0 $"
b0 ."
b0 \
b1111111111101011 6"
1!
1T
#10000
0!
0T
#11000
xE
b100010001000100 N"
b1111111111111111 M"
zT"
zS
b0 S"
b0 %
b0 l
b0 U"
b0 o
b0 M
b0 p
0J
b10 K"
b10 )
b10 P"
0]
0>
0e
0L
0g
0P
b0 f
b0 O
b0 @"
bx Y
bx +
bx Q"
bx d
bx K
bx m
b101 a
b1111110100 8"
b1111110100 5
b1111110100 7"
b1111110100 B"
b100000100100011 t
b100000100100011 4
b100000100100011 y
b10 V"
b10 &
b10 k
b10 $"
b10 ."
b11 ~
b11 2
b11 -"
b0 }
b1100 1
b1100 u
b1100 ,"
b0 -
b0 v
b1 #"
b1 G
b1 X
b1001111110100 !"
b1001111110100 ?
b10 q
b10 N
b10 r
b10 J"
b1 \
b0 6"
1!
1T
#12000
0!
0T
#13000
1E
b1111111111101000 L"
b1111111111101000 *
b1111111111101000 R"
b11 K"
b11 )
b11 P"
b1111111111110100 O"
b101 N"
b11 M"
0T"
0S
b1111111111101011 S"
b1111111111101011 %
b1111111111101011 l
b1111111111101011 U"
0i
0Q
1g
1P
b10 f
b10 O
b10 @"
b11 [
b11 (
b11 ?"
1Z
1'
1j
1V
b0 Y
b0 +
b0 Q"
b100011 a
b0 V"
b0 &
b0 k
b0 $"
b0 ."
b11 0"
b11 3
b11 n
b11 A"
b101 4"
b101 :
b101 %"
b101 G"
b101 \
b10 6"
b1100 5"
1!
1T
#14000
0!
0T
#15000
xE
x#
bx &"
bx @
bx '"
b1 L"
b1 *
b1 R"
b1 K"
b1 )
b1 P"
b0 O"
b1 N"
b1 M"
zT"
zS
b0 S"
b0 %
b0 l
b0 U"
xJ
xF
x$
1^
1B
xc
xI
xb
xH
xg
xP
bx f
bx O
bx @"
bx [
bx (
bx ?"
xZ
x'
xj
xV
bx Y
bx +
bx Q"
b111111 a
b1111111111101011 V"
b1111111111101011 &
b1111111111101011 k
b1111111111101011 $"
b1111111111101011 ."
b100011 \
b0 6"
1!
1T
#16000
0!
0T
#17000
b1101110111011101 &"
b1101110111011101 @
b1101110111011101 '"
1h
1R
0^
0B
1_
1C
1i
1Q
b0 a
bx ("
bx A
bx /"
b0 V"
b0 &
b0 k
b0 $"
b0 ."
b111111 \
b1111111111101011 6"
1!
1T
#18000
0!
0T
#19000
b11 o
b11 M
b11 p
1E
b10 K"
b10 )
b10 P"
0T"
0S
b11 S"
b11 %
b11 l
b11 U"
0F
1J
0$
0#
0h
0R
1]
1>
1e
1L
0c
0I
0b
0H
x_
xC
xi
xQ
b1 [
b1 (
b1 ?"
0Z
0'
b0 Y
b0 +
b0 Q"
b0 d
b0 K
b0 m
b1 a
b1101110111011101 ("
b1101110111011101 A
b1101110111011101 /"
b0 \
bx 6"
b11 5"
1!
1T
#20000
0!
0T
#21000
xE
b100010001000100 N"
b1111111111111111 M"
zT"
zS
b0 S"
b0 %
b0 l
b0 U"
b0 o
b0 M
b0 p
0J
b11 K"
b11 )
b11 P"
0]
0>
0e
0L
0g
0P
b0 f
b0 O
b0 @"
bx Y
bx +
bx Q"
bx d
bx K
bx m
b110 a
b1000110 6
b1000110 ="
b1000110 C"
b100100001 t
b100100001 4
b100100001 y
b100011 <"
b100011 <
b100011 ;"
b100011 I"
b100011 :"
b100011 ;
b100011 9"
b100011 >"
b100011 H"
b100100011 8"
b100100011 5
b100100011 7"
b100100011 B"
b11 q
b11 N
b11 r
b11 J"
b1 ~
b1 2
b1 -"
b1 z
b1001 .
b1001 w
b1001 )"
b1 ,
b1 x
b11 |
b11 0
b11 +"
b10 {
b10 /
b10 *"
b11 ""
b11 =
b11 W
b100 #"
b100 G
b100 X
b100000100100011 !"
b100000100100011 ?
b11 V"
b11 &
b11 k
b11 $"
b11 ."
bx 0"
bx 3
bx n
bx A"
b1 \
b0 6"
b1100 5"
1!
1T
#22000
0!
0T
#23000
xE
bx L"
bx *
bx R"
xT"
xS
bx S"
bx %
bx l
bx U"
b10001 o
b10001 M
b10001 p
xJ
xF
x#
bx N"
b11 M"
1b
1H
1i
1Q
b0 [
b0 (
b0 ?"
1Z
1'
b1 Y
b1 +
b1 Q"
b10 d
b10 K
b10 m
b0 a
b0 V"
b0 &
b0 k
b0 $"
b0 ."
b10001 0"
b10001 3
b10001 n
b10001 A"
b1001100110011001 1"
b1001100110011001 7
b1001100110011001 D"
bx 3"
bx 9
bx F"
b11 2"
b11 8
b11 E"
b110 \
b11 6"
1!
1T
#24000
0!
0T
#25000
1E
0T"
0S
b100 S"
b100 %
b100 l
b100 U"
b1 L"
b1 *
b1 R"
b1 N"
b1 M"
b100 o
b100 M
b100 p
0F
1J
0#
1]
1>
1e
1L
0b
0H
xi
xQ
xg
xP
bx f
bx O
bx @"
b1 [
b1 (
b1 ?"
0Z
0'
b0 Y
b0 +
b0 Q"
b0 d
b0 K
b0 m
b1 a
bx V"
bx &
bx k
bx $"
bx ."
b0 \
b0 6"
b1 5"
1!
1T
#26000
0!
0T
#27000
xE
bx N"
b11 M"
zT"
zS
b0 S"
b0 %
b0 l
b0 U"
b0 o
b0 M
b0 p
0J
b100 K"
b100 )
b100 P"
0]
0>
0e
0L
0g
0P
b0 f
b0 O
b0 @"
bx Y
bx +
bx Q"
bx d
bx K
bx m
b100100 a
b1000010 6
b1000010 ="
b1000010 C"
b100001 <"
b100001 <
b100001 ;"
b100001 I"
b100001 :"
b100001 ;
b100001 9"
b100001 >"
b100001 H"
b100100001 8"
b100100001 5
b100100001 7"
b100100001 B"
b100100010 t
b100100010 4
b100100010 y
b100 V"
b100 &
b100 k
b100 $"
b100 ."
b1 |
b1 0
b1 +"
b1 ""
b1 =
b1 W
b0 #"
b0 G
b0 X
b100100001 !"
b100100001 ?
b100 q
b100 N
b100 r
b100 J"
b1 \
bx 6"
b1100 5"
1!
1T
#28000
0!
0T
#29000
1E
b10 L"
b10 *
b10 R"
b10001 K"
b10001 )
b10001 P"
b100001 O"
b10001 M"
0T"
0S
b1000100 S"
b1000100 %
b1000100 l
b1000100 U"
b1 N"
1i
1Q
xg
xP
b1 f
b1 O
b1 @"
b101 [
b101 (
b101 ?"
1Z
1'
0j
0V
b11 Y
b11 +
b11 Q"
b101000 a
b0 V"
b0 &
b0 k
b0 $"
b0 ."
b10001 3"
b10001 9
b10001 F"
b100100 \
b100 6"
1!
1T
#30000
0!
0T
#31000
xE
x#
b1 L"
b1 *
b1 R"
b1 K"
b1 )
b1 P"
b0 O"
b1 M"
zT"
zS
b0 S"
b0 %
b0 l
b0 U"
xJ
xF
x$
1h
1R
xc
xI
xb
xH
0_
0C
bx f
bx O
bx @"
bx [
bx (
bx ?"
xZ
x'
xj
xV
bx Y
bx +
bx Q"
b0 a
b1000100 V"
b1000100 &
b1000100 k
b1000100 $"
b1000100 ."
b101000 \
b0 6"
b1 5"
1!
1T
#32000
0!
0T
#33000
b101 o
b101 M
b101 p
1E
b100 K"
b100 )
b100 P"
0T"
0S
b101 S"
b101 %
b101 l
b101 U"
0F
1J
0$
0#
0h
0R
1]
1>
1e
1L
0c
0I
0b
0H
x_
xC
xi
xQ
b1 [
b1 (
b1 ?"
0Z
0'
b0 Y
b0 +
b0 Q"
b0 d
b0 K
b0 m
b1 a
b0 V"
b0 &
b0 k
b0 $"
b0 ."
b1000100 0"
b1000100 3
b1000100 n
b1000100 A"
b1000100 3"
b1000100 9
b1000100 F"
b0 \
b1000100 6"
1!
1T
#34000
0!
0T
#35000
xE
b1000100 N"
b11 M"
zT"
zS
b0 S"
b0 %
b0 l
b0 U"
b0 o
b0 M
b0 p
0J
b101 K"
b101 )
b101 P"
0]
0>
0e
0L
0g
0P
b0 f
b0 O
b0 @"
bx Y
bx +
bx Q"
bx d
bx K
bx m
b100101 a
b1000100 6
b1000100 ="
b1000100 C"
b100010 <"
b100010 <
b100010 ;"
b100010 I"
b100010 :"
b100010 ;
b100010 9"
b100010 >"
b100010 H"
b100100010 8"
b100100010 5
b100100010 7"
b100100010 B"
b100100011 t
b100100011 4
b100100011 y
b101 V"
b101 &
b101 k
b101 $"
b101 ."
b10 |
b10 0
b10 +"
b10 ""
b10 =
b10 W
b100100010 !"
b100100010 ?
b101 q
b101 N
b101 r
b101 J"
b1 \
b0 6"
b1100 5"
1!
1T
#36000
0!
0T
#37000
1E
b10 L"
b10 *
b10 R"
b1000100 K"
b1000100 )
b1000100 P"
b100010 O"
b1000100 M"
0T"
0S
b10001 S"
b10001 %
b10001 l
b10001 U"
b1 N"
1i
1Q
xg
xP
b1 f
b1 O
b1 @"
b101 [
b101 (
b101 ?"
1Z
1'
0j
0V
b10 Y
b10 +
b10 Q"
b101000 a
b0 V"
b0 &
b0 k
b0 $"
b0 ."
b11 3"
b11 9
b11 F"
b100101 \
b101 6"
1!
1T
#38000
0!
0T
#39000
xE
x#
b1 L"
b1 *
b1 R"
b1 K"
b1 )
b1 P"
b0 O"
b1 M"
zT"
zS
b0 S"
b0 %
b0 l
b0 U"
xJ
xF
x$
1h
1R
xc
xI
xb
xH
0_
0C
bx f
bx O
bx @"
bx [
bx (
bx ?"
xZ
x'
xj
xV
bx Y
bx +
bx Q"
b0 a
b10001 V"
b10001 &
b10001 k
b10001 $"
b10001 ."
b101000 \
b0 6"
b1 5"
1!
1T
#40000
0!
0T
#41000
b110 o
b110 M
b110 p
1E
b101 K"
b101 )
b101 P"
0T"
0S
b110 S"
b110 %
b110 l
b110 U"
0F
1J
0$
0#
0h
0R
1]
1>
1e
1L
0c
0I
0b
0H
x_
xC
xi
xQ
b1 [
b1 (
b1 ?"
0Z
0'
b0 Y
b0 +
b0 Q"
b0 d
b0 K
b0 m
b1 a
b0 V"
b0 &
b0 k
b0 $"
b0 ."
b10001 0"
b10001 3
b10001 n
b10001 A"
b0 \
b10001 6"
1!
1T
#42000
0!
0T
#43000
xE
b11 N"
b11 M"
zT"
zS
b0 S"
b0 %
b0 l
b0 U"
b0 o
b0 M
b0 p
0J
b110 K"
b110 )
b110 P"
0]
0>
0e
0L
0g
0P
b0 f
b0 O
b0 @"
bx Y
bx +
bx Q"
bx d
bx K
bx m
b100110 a
b1000110 6
b1000110 ="
b1000110 C"
b100011 <"
b100011 <
b100011 ;"
b100011 I"
b100011 :"
b100011 ;
b100011 9"
b100011 >"
b100011 H"
b100100011 8"
b100100011 5
b100100011 7"
b100100011 B"
b1000000100110010 t
b1000000100110010 4
b1000000100110010 y
b110 V"
b110 &
b110 k
b110 $"
b110 ."
b11 |
b11 0
b11 +"
b11 ""
b11 =
b11 W
b100100011 !"
b100100011 ?
b110 q
b110 N
b110 r
b110 J"
b1 \
b0 6"
b1100 5"
1!
1T
#44000
0!
0T
#45000
1E
b10 L"
b10 *
b10 R"
b10001 K"
b10001 )
b10001 P"
b100011 O"
b10001 M"
0T"
0S
b100 S"
b100 %
b100 l
b100 U"
b1 N"
1i
1Q
xg
xP
b1 f
b1 O
b1 @"
b101 [
b101 (
b101 ?"
1Z
1'
0j
0V
b111 Y
b111 +
b111 Q"
b101000 a
b0 V"
b0 &
b0 k
b0 $"
b0 ."
bx 3"
bx 9
bx F"
b100110 \
b110 6"
1!
1T
#46000
0!
0T
#47000
xE
x#
b1 L"
b1 *
b1 R"
b1 K"
b1 )
b1 P"
b0 O"
b1 M"
zT"
zS
b0 S"
b0 %
b0 l
b0 U"
xJ
xF
x$
1h
1R
xc
xI
xb
xH
0_
0C
bx f
bx O
bx @"
bx [
bx (
bx ?"
xZ
x'
xj
xV
bx Y
bx +
bx Q"
b0 a
b100 V"
b100 &
b100 k
b100 $"
b100 ."
b101000 \
b0 6"
b1 5"
1!
1T
#48000
0!
0T
#49000
b111 o
b111 M
b111 p
1E
b110 K"
b110 )
b110 P"
0T"
0S
b111 S"
b111 %
b111 l
b111 U"
0F
1J
0$
0#
0h
0R
1]
1>
1e
1L
0c
0I
0b
0H
x_
xC
xi
xQ
b1 [
b1 (
b1 ?"
0Z
0'
b0 Y
b0 +
b0 Q"
b0 d
b0 K
b0 m
b1 a
b0 V"
b0 &
b0 k
b0 $"
b0 ."
b100 0"
b100 3
b100 n
b100 A"
b0 \
b100 6"
1!
1T
#50000
0!
0T
#51000
xE
bx N"
b11 M"
zT"
zS
b0 S"
b0 %
b0 l
b0 U"
b0 o
b0 M
b0 p
0J
b111 K"
b111 )
b111 P"
0]
0>
0e
0L
0g
0P
b0 f
b0 O
b0 @"
bx Y
bx +
bx Q"
bx d
bx K
bx m
b10 a
b1100100 6
b1100100 ="
b1100100 C"
b110010 <"
b110010 <
b110010 ;"
b110010 I"
b110010 :"
b110010 ;
b110010 9"
b110010 >"
b110010 H"
b100110010 8"
b100110010 5
b100110010 7"
b100110010 B"
b1000000100010011 t
b1000000100010011 4
b1000000100010011 y
b111 V"
b111 &
b111 k
b111 $"
b111 ."
b10 |
b10 0
b10 +"
b11 {
b11 /
b11 *"
b10 ""
b10 =
b10 W
b1000 #"
b1000 G
b1000 X
b1000000100110010 !"
b1000000100110010 ?
b111 q
b111 N
b111 r
b111 J"
b1 \
b0 6"
b1100 5"
1!
1T
#52000
0!
0T
#53000
xE
b11 L"
b11 *
b11 R"
bx K"
bx )
bx P"
xT"
xS
bx S"
bx %
bx l
bx U"
b11 N"
bx M"
1i
1Q
b0 [
b0 (
b0 ?"
1Z
1'
b0 Y
b0 +
b0 Q"
b101000 a
b0 V"
b0 &
b0 k
b0 $"
b0 ."
b11 3"
b11 9
b11 F"
bx 2"
bx 8
bx E"
b10 \
b111 6"
1!
1T
#54000
0!
0T
#55000
b1 L"
b1 *
b1 R"
b1 K"
b1 )
b1 P"
b1 N"
b1 M"
zT"
zS
b0 S"
b0 %
b0 l
b0 U"
xJ
xF
x$
x#
1h
1R
xc
xI
xb
xH
0_
0C
xg
xP
bx f
bx O
bx @"
bx [
bx (
bx ?"
xZ
x'
bx Y
bx +
bx Q"
b0 a
bx V"
bx &
bx k
bx $"
bx ."
b101000 \
b0 6"
b1 5"
1!
1T
#56000
0!
0T
#57000
b1000 o
b1000 M
b1000 p
1E
b111 K"
b111 )
b111 P"
0T"
0S
b1000 S"
b1000 %
b1000 l
b1000 U"
0F
1J
0$
0#
0h
0R
1]
1>
1e
1L
0c
0I
0b
0H
x_
xC
xi
xQ
b1 [
b1 (
b1 ?"
0Z
0'
b0 Y
b0 +
b0 Q"
b0 d
b0 K
b0 m
b1 a
b0 V"
b0 &
b0 k
b0 $"
b0 ."
bx 0"
bx 3
bx n
bx A"
b0 \
bx 6"
1!
1T
#58000
0!
0T
#59000
xE
b11 N"
bx M"
zT"
zS
b0 S"
b0 %
b0 l
b0 U"
b0 o
b0 M
b0 p
0J
b1000 K"
b1000 )
b1000 P"
0]
0>
0e
0L
0g
0P
b0 f
b0 O
b0 @"
bx Y
bx +
bx Q"
bx d
bx K
bx m
b10 a
b100110 6
b100110 ="
b100110 C"
b10011 <"
b10011 <
b10011 ;"
b10011 I"
b10011 :"
b10011 ;
b10011 9"
b10011 >"
b10011 H"
b100010011 8"
b100010011 5
b100010011 7"
b100010011 B"
b1001000000000001 t
b1001000000000001 4
b1001000000000001 y
b1000 V"
b1000 &
b1000 k
b1000 $"
b1000 ."
b11 |
b11 0
b11 +"
b1 {
b1 /
b1 *"
b11 ""
b11 =
b11 W
b1000000100010011 !"
b1000000100010011 ?
b1000 q
b1000 N
b1000 r
b1000 J"
b1 \
b0 6"
b1100 5"
1!
1T
#60000
0!
0T
#61000
xE
bx L"
bx *
bx R"
bx K"
bx )
bx P"
xT"
xS
bx S"
bx %
bx l
bx U"
bx N"
1i
1Q
b0 [
b0 (
b0 ?"
1Z
1'
b0 Y
b0 +
b0 Q"
b101000 a
b0 V"
b0 &
b0 k
b0 $"
b0 ."
bx 3"
bx 9
bx F"
b10 \
b1000 6"
1!
1T
#62000
0!
0T
#63000
b1 L"
b1 *
b1 R"
b1 K"
b1 )
b1 P"
b1 N"
b1 M"
zT"
zS
b0 S"
b0 %
b0 l
b0 U"
xJ
xF
x$
x#
1h
1R
xc
xI
xb
xH
0_
0C
xg
xP
bx f
bx O
bx @"
bx [
bx (
bx ?"
xZ
x'
bx Y
bx +
bx Q"
b0 a
bx V"
bx &
bx k
bx $"
bx ."
b101000 \
b0 6"
b1 5"
1!
1T
#64000
0!
0T
